<?xml version="1.0" encoding="utf-8" standalone="no"?>
<!DOCTYPE svg PUBLIC "-//W3C//DTD SVG 1.1//EN"
  "http://www.w3.org/Graphics/SVG/1.1/DTD/svg11.dtd">
<!-- Created with matplotlib (http://matplotlib.org/) -->
<svg height="720pt" version="1.1" viewBox="0 0 720 720" width="720pt" xmlns="http://www.w3.org/2000/svg" xmlns:xlink="http://www.w3.org/1999/xlink">
 <defs>
  <style type="text/css">
*{stroke-linecap:square;stroke-linejoin:round;}
  </style>
 </defs>
 <g id="figure_1">
  <g id="patch_1">
   <path d="
M0 720
L720 720
L720 0
L0 0
z
" style="fill:#ffffff;"/>
  </g>
  <g id="axes_1">
   <g id="patch_2">
    <path d="
M90 325.636
L343.636 325.636
L343.636 72
L90 72
z
" style="fill:#ffffff;"/>
   </g>
   <g id="line2d_1">
    <path clip-path="url(#peca1e0c77b)" d="
M128.045 230.393
L132.445 238.59
L136.845 244.917
L141.245 249.994
L145.645 254.432
L150.045 258.288
L154.444 261.557
L158.844 264.352
L163.244 266.751
L167.644 268.794
L172.044 270.521
L176.443 271.973
L180.843 273.179
L185.243 274.164
L189.643 274.953
L194.043 275.565
L198.442 276.016
L202.842 276.323
L207.242 276.497
L211.642 276.551
L216.042 276.495
L220.442 276.339
L224.841 276.091
L229.241 275.758
L233.641 275.347
L238.041 274.864
L242.441 274.315
L246.84 273.704
L251.24 273.037
L255.64 272.317
L260.04 271.548
L264.44 270.734
L268.84 269.877
L273.239 268.982
L277.639 268.049
L282.039 267.083
L286.439 266.085
L290.839 265.058
L295.238 264.002
L299.638 262.921
L304.038 261.816
L308.438 260.688
L312.838 259.54
L317.237 258.371
L321.637 257.184
L326.037 255.98
L330.437 254.76
L334.837 253.525
L339.237 252.275
L343.636 251.013" style="fill:none;stroke:#ff0000;"/>
   </g>
   <g id="line2d_2">
    <path clip-path="url(#peca1e0c77b)" d="
M128.045 276.08
L132.445 280.91
L136.845 285.676
L141.245 289.985
L145.645 293.512
L150.045 296.43
L154.444 298.91
L158.844 300.986
L163.244 302.7
L167.644 304.106
L172.044 305.242
L176.443 306.139
L180.843 306.822
L185.243 307.316
L189.643 307.64
L194.043 307.811
L198.442 307.844
L202.842 307.753
L207.242 307.548
L211.642 307.24
L216.042 306.839
L220.442 306.352
L224.841 305.787
L229.241 305.149
L233.641 304.446
L238.041 303.682
L242.441 302.862
L246.84 301.991
L251.24 301.072
L255.64 300.109
L260.04 299.106
L264.44 298.065
L268.84 296.989
L273.239 295.881
L277.639 294.742
L282.039 293.576
L286.439 292.384
L290.839 291.168
L295.238 289.93
L299.638 288.671
L304.038 287.393
L308.438 286.097
L312.838 284.785
L317.237 283.457
L321.637 282.114
L326.037 280.758
L330.437 279.39
L334.837 278.011
L339.237 276.62
L343.636 275.22" style="fill:none;stroke:#0000ff;stroke-dasharray:6.000000,6.000000;stroke-dashoffset:0.0;stroke-linecap:butt;"/>
   </g>
   <g id="matplotlib.axis_1">
    <g id="xtick_1">
     <g id="line2d_3">
      <defs>
       <path d="
M0 0
L0 -4" id="mcb557df647" style="stroke:#000000;stroke-linecap:butt;stroke-width:0.5;"/>
      </defs>
      <g>
       <use style="stroke:#000000;stroke-linecap:butt;stroke-width:0.5;" x="90.0" xlink:href="#mcb557df647" y="325.636363636"/>
      </g>
     </g>
     <g id="line2d_4">
      <defs>
       <path d="
M0 0
L0 4" id="mdad270ee8e" style="stroke:#000000;stroke-linecap:butt;stroke-width:0.5;"/>
      </defs>
      <g>
       <use style="stroke:#000000;stroke-linecap:butt;stroke-width:0.5;" x="90.0" xlink:href="#mdad270ee8e" y="72.0"/>
      </g>
     </g>
     <g id="text_1">
      <!-- 0.0% -->
      <defs>
       <path d="
M72.7031 32.0781
Q68.4531 32.0781 66.0312 28.4688
Q63.625 24.8594 63.625 18.4062
Q63.625 12.0625 66.0312 8.42188
Q68.4531 4.78125 72.7031 4.78125
Q76.8594 4.78125 79.2656 8.42188
Q81.6875 12.0625 81.6875 18.4062
Q81.6875 24.8125 79.2656 28.4375
Q76.8594 32.0781 72.7031 32.0781
M72.7031 38.2812
Q80.4219 38.2812 84.9531 32.9062
Q89.5 27.5469 89.5 18.4062
Q89.5 9.28125 84.9375 3.92188
Q80.375 -1.42188 72.7031 -1.42188
Q64.8906 -1.42188 60.3438 3.92188
Q55.8125 9.28125 55.8125 18.4062
Q55.8125 27.5938 60.375 32.9375
Q64.9375 38.2812 72.7031 38.2812
M22.3125 68.0156
Q18.1094 68.0156 15.6875 64.375
Q13.2812 60.75 13.2812 54.3906
Q13.2812 47.9531 15.6719 44.3281
Q18.0625 40.7188 22.3125 40.7188
Q26.5625 40.7188 28.9688 44.3281
Q31.3906 47.9531 31.3906 54.3906
Q31.3906 60.6875 28.9531 64.3438
Q26.5156 68.0156 22.3125 68.0156
M66.4062 74.2188
L74.2188 74.2188
L28.6094 -1.42188
L20.7969 -1.42188
z

M22.3125 74.2188
Q30.0312 74.2188 34.6094 68.875
Q39.2031 63.5312 39.2031 54.3906
Q39.2031 45.1719 34.6406 39.8438
Q30.0781 34.5156 22.3125 34.5156
Q14.5469 34.5156 10.0312 39.8594
Q5.51562 45.2188 5.51562 54.3906
Q5.51562 63.4844 10.0469 68.8438
Q14.5938 74.2188 22.3125 74.2188" id="BitstreamVeraSans-Roman-25"/>
       <path d="
M31.7812 66.4062
Q24.1719 66.4062 20.3281 58.9062
Q16.5 51.4219 16.5 36.375
Q16.5 21.3906 20.3281 13.8906
Q24.1719 6.39062 31.7812 6.39062
Q39.4531 6.39062 43.2812 13.8906
Q47.125 21.3906 47.125 36.375
Q47.125 51.4219 43.2812 58.9062
Q39.4531 66.4062 31.7812 66.4062
M31.7812 74.2188
Q44.0469 74.2188 50.5156 64.5156
Q56.9844 54.8281 56.9844 36.375
Q56.9844 17.9688 50.5156 8.26562
Q44.0469 -1.42188 31.7812 -1.42188
Q19.5312 -1.42188 13.0625 8.26562
Q6.59375 17.9688 6.59375 36.375
Q6.59375 54.8281 13.0625 64.5156
Q19.5312 74.2188 31.7812 74.2188" id="BitstreamVeraSans-Roman-30"/>
       <path d="
M10.6875 12.4062
L21 12.4062
L21 0
L10.6875 0
z
" id="BitstreamVeraSans-Roman-2e"/>
      </defs>
      <g transform="translate(77.903125 337.058238636)scale(0.1 -0.1)">
       <use xlink:href="#BitstreamVeraSans-Roman-30"/>
       <use x="63.623046875" xlink:href="#BitstreamVeraSans-Roman-2e"/>
       <use x="95.41015625" xlink:href="#BitstreamVeraSans-Roman-30"/>
       <use x="159.033203125" xlink:href="#BitstreamVeraSans-Roman-25"/>
      </g>
     </g>
    </g>
    <g id="xtick_2">
     <g id="line2d_5">
      <g>
       <use style="stroke:#000000;stroke-linecap:butt;stroke-width:0.5;" x="153.409090909" xlink:href="#mcb557df647" y="325.636363636"/>
      </g>
     </g>
     <g id="line2d_6">
      <g>
       <use style="stroke:#000000;stroke-linecap:butt;stroke-width:0.5;" x="153.409090909" xlink:href="#mdad270ee8e" y="72.0"/>
      </g>
     </g>
     <g id="text_2">
      <!-- 50.0% -->
      <defs>
       <path d="
M10.7969 72.9062
L49.5156 72.9062
L49.5156 64.5938
L19.8281 64.5938
L19.8281 46.7344
Q21.9688 47.4688 24.1094 47.8281
Q26.2656 48.1875 28.4219 48.1875
Q40.625 48.1875 47.75 41.5
Q54.8906 34.8125 54.8906 23.3906
Q54.8906 11.625 47.5625 5.09375
Q40.2344 -1.42188 26.9062 -1.42188
Q22.3125 -1.42188 17.5469 -0.640625
Q12.7969 0.140625 7.71875 1.70312
L7.71875 11.625
Q12.1094 9.23438 16.7969 8.0625
Q21.4844 6.89062 26.7031 6.89062
Q35.1562 6.89062 40.0781 11.3281
Q45.0156 15.7656 45.0156 23.3906
Q45.0156 31 40.0781 35.4375
Q35.1562 39.8906 26.7031 39.8906
Q22.75 39.8906 18.8125 39.0156
Q14.8906 38.1406 10.7969 36.2812
z
" id="BitstreamVeraSans-Roman-35"/>
      </defs>
      <g transform="translate(138.187215909 337.058238636)scale(0.1 -0.1)">
       <use xlink:href="#BitstreamVeraSans-Roman-35"/>
       <use x="63.623046875" xlink:href="#BitstreamVeraSans-Roman-30"/>
       <use x="127.24609375" xlink:href="#BitstreamVeraSans-Roman-2e"/>
       <use x="159.033203125" xlink:href="#BitstreamVeraSans-Roman-30"/>
       <use x="222.65625" xlink:href="#BitstreamVeraSans-Roman-25"/>
      </g>
     </g>
    </g>
    <g id="xtick_3">
     <g id="line2d_7">
      <g>
       <use style="stroke:#000000;stroke-linecap:butt;stroke-width:0.5;" x="216.818181818" xlink:href="#mcb557df647" y="325.636363636"/>
      </g>
     </g>
     <g id="line2d_8">
      <g>
       <use style="stroke:#000000;stroke-linecap:butt;stroke-width:0.5;" x="216.818181818" xlink:href="#mdad270ee8e" y="72.0"/>
      </g>
     </g>
     <g id="text_3">
      <!-- 100.0% -->
      <defs>
       <path d="
M12.4062 8.29688
L28.5156 8.29688
L28.5156 63.9219
L10.9844 60.4062
L10.9844 69.3906
L28.4219 72.9062
L38.2812 72.9062
L38.2812 8.29688
L54.3906 8.29688
L54.3906 0
L12.4062 0
z
" id="BitstreamVeraSans-Roman-31"/>
      </defs>
      <g transform="translate(198.578338068 337.058238636)scale(0.1 -0.1)">
       <use xlink:href="#BitstreamVeraSans-Roman-31"/>
       <use x="63.623046875" xlink:href="#BitstreamVeraSans-Roman-30"/>
       <use x="127.24609375" xlink:href="#BitstreamVeraSans-Roman-30"/>
       <use x="190.869140625" xlink:href="#BitstreamVeraSans-Roman-2e"/>
       <use x="222.65625" xlink:href="#BitstreamVeraSans-Roman-30"/>
       <use x="286.279296875" xlink:href="#BitstreamVeraSans-Roman-25"/>
      </g>
     </g>
    </g>
    <g id="xtick_4">
     <g id="line2d_9">
      <g>
       <use style="stroke:#000000;stroke-linecap:butt;stroke-width:0.5;" x="280.227272727" xlink:href="#mcb557df647" y="325.636363636"/>
      </g>
     </g>
     <g id="line2d_10">
      <g>
       <use style="stroke:#000000;stroke-linecap:butt;stroke-width:0.5;" x="280.227272727" xlink:href="#mdad270ee8e" y="72.0"/>
      </g>
     </g>
     <g id="text_4">
      <!-- 150.0% -->
      <g transform="translate(261.987428977 337.058238636)scale(0.1 -0.1)">
       <use xlink:href="#BitstreamVeraSans-Roman-31"/>
       <use x="63.623046875" xlink:href="#BitstreamVeraSans-Roman-35"/>
       <use x="127.24609375" xlink:href="#BitstreamVeraSans-Roman-30"/>
       <use x="190.869140625" xlink:href="#BitstreamVeraSans-Roman-2e"/>
       <use x="222.65625" xlink:href="#BitstreamVeraSans-Roman-30"/>
       <use x="286.279296875" xlink:href="#BitstreamVeraSans-Roman-25"/>
      </g>
     </g>
    </g>
    <g id="xtick_5">
     <g id="line2d_11">
      <g>
       <use style="stroke:#000000;stroke-linecap:butt;stroke-width:0.5;" x="343.636363636" xlink:href="#mcb557df647" y="325.636363636"/>
      </g>
     </g>
     <g id="line2d_12">
      <g>
       <use style="stroke:#000000;stroke-linecap:butt;stroke-width:0.5;" x="343.636363636" xlink:href="#mdad270ee8e" y="72.0"/>
      </g>
     </g>
     <g id="text_5">
      <!-- 200.0% -->
      <defs>
       <path d="
M19.1875 8.29688
L53.6094 8.29688
L53.6094 0
L7.32812 0
L7.32812 8.29688
Q12.9375 14.1094 22.625 23.8906
Q32.3281 33.6875 34.8125 36.5312
Q39.5469 41.8438 41.4219 45.5312
Q43.3125 49.2188 43.3125 52.7812
Q43.3125 58.5938 39.2344 62.25
Q35.1562 65.9219 28.6094 65.9219
Q23.9688 65.9219 18.8125 64.3125
Q13.6719 62.7031 7.8125 59.4219
L7.8125 69.3906
Q13.7656 71.7812 18.9375 73
Q24.125 74.2188 28.4219 74.2188
Q39.75 74.2188 46.4844 68.5469
Q53.2188 62.8906 53.2188 53.4219
Q53.2188 48.9219 51.5312 44.8906
Q49.8594 40.875 45.4062 35.4062
Q44.1875 33.9844 37.6406 27.2188
Q31.1094 20.4531 19.1875 8.29688" id="BitstreamVeraSans-Roman-32"/>
      </defs>
      <g transform="translate(325.213707386 337.058238636)scale(0.1 -0.1)">
       <use xlink:href="#BitstreamVeraSans-Roman-32"/>
       <use x="63.623046875" xlink:href="#BitstreamVeraSans-Roman-30"/>
       <use x="127.24609375" xlink:href="#BitstreamVeraSans-Roman-30"/>
       <use x="190.869140625" xlink:href="#BitstreamVeraSans-Roman-2e"/>
       <use x="222.65625" xlink:href="#BitstreamVeraSans-Roman-30"/>
       <use x="286.279296875" xlink:href="#BitstreamVeraSans-Roman-25"/>
      </g>
     </g>
    </g>
    <g id="text_6">
     <!-- Capital scarcity in foreign country -->
     <defs>
      <path id="BitstreamVeraSans-Roman-20"/>
      <path d="
M8.5 21.5781
L8.5 54.6875
L17.4844 54.6875
L17.4844 21.9219
Q17.4844 14.1562 20.5 10.2656
Q23.5312 6.39062 29.5938 6.39062
Q36.8594 6.39062 41.0781 11.0312
Q45.3125 15.6719 45.3125 23.6875
L45.3125 54.6875
L54.2969 54.6875
L54.2969 0
L45.3125 0
L45.3125 8.40625
Q42.0469 3.42188 37.7188 1
Q33.4062 -1.42188 27.6875 -1.42188
Q18.2656 -1.42188 13.375 4.4375
Q8.5 10.2969 8.5 21.5781" id="BitstreamVeraSans-Roman-75"/>
      <path d="
M54.8906 33.0156
L54.8906 0
L45.9062 0
L45.9062 32.7188
Q45.9062 40.4844 42.875 44.3281
Q39.8438 48.1875 33.7969 48.1875
Q26.5156 48.1875 22.3125 43.5469
Q18.1094 38.9219 18.1094 30.9062
L18.1094 0
L9.07812 0
L9.07812 54.6875
L18.1094 54.6875
L18.1094 46.1875
Q21.3438 51.125 25.7031 53.5625
Q30.0781 56 35.7969 56
Q45.2188 56 50.0469 50.1719
Q54.8906 44.3438 54.8906 33.0156" id="BitstreamVeraSans-Roman-6e"/>
      <path d="
M41.1094 46.2969
Q39.5938 47.1719 37.8125 47.5781
Q36.0312 48 33.8906 48
Q26.2656 48 22.1875 43.0469
Q18.1094 38.0938 18.1094 28.8125
L18.1094 0
L9.07812 0
L9.07812 54.6875
L18.1094 54.6875
L18.1094 46.1875
Q20.9531 51.1719 25.4844 53.5781
Q30.0312 56 36.5312 56
Q37.4531 56 38.5781 55.875
Q39.7031 55.7656 41.0625 55.5156
z
" id="BitstreamVeraSans-Roman-72"/>
      <path d="
M30.6094 48.3906
Q23.3906 48.3906 19.1875 42.75
Q14.9844 37.1094 14.9844 27.2969
Q14.9844 17.4844 19.1562 11.8438
Q23.3438 6.20312 30.6094 6.20312
Q37.7969 6.20312 41.9844 11.8594
Q46.1875 17.5312 46.1875 27.2969
Q46.1875 37.0156 41.9844 42.7031
Q37.7969 48.3906 30.6094 48.3906
M30.6094 56
Q42.3281 56 49.0156 48.375
Q55.7188 40.7656 55.7188 27.2969
Q55.7188 13.875 49.0156 6.21875
Q42.3281 -1.42188 30.6094 -1.42188
Q18.8438 -1.42188 12.1719 6.21875
Q5.51562 13.875 5.51562 27.2969
Q5.51562 40.7656 12.1719 48.375
Q18.8438 56 30.6094 56" id="BitstreamVeraSans-Roman-6f"/>
      <path d="
M9.42188 75.9844
L18.4062 75.9844
L18.4062 0
L9.42188 0
z
" id="BitstreamVeraSans-Roman-6c"/>
      <path d="
M45.4062 27.9844
Q45.4062 37.75 41.375 43.1094
Q37.3594 48.4844 30.0781 48.4844
Q22.8594 48.4844 18.8281 43.1094
Q14.7969 37.75 14.7969 27.9844
Q14.7969 18.2656 18.8281 12.8906
Q22.8594 7.51562 30.0781 7.51562
Q37.3594 7.51562 41.375 12.8906
Q45.4062 18.2656 45.4062 27.9844
M54.3906 6.78125
Q54.3906 -7.17188 48.1875 -13.9844
Q42 -20.7969 29.2031 -20.7969
Q24.4688 -20.7969 20.2656 -20.0938
Q16.0625 -19.3906 12.1094 -17.9219
L12.1094 -9.1875
Q16.0625 -11.3281 19.9219 -12.3438
Q23.7812 -13.375 27.7812 -13.375
Q36.625 -13.375 41.0156 -8.76562
Q45.4062 -4.15625 45.4062 5.17188
L45.4062 9.625
Q42.625 4.78125 38.2812 2.39062
Q33.9375 0 27.875 0
Q17.8281 0 11.6719 7.65625
Q5.51562 15.3281 5.51562 27.9844
Q5.51562 40.6719 11.6719 48.3281
Q17.8281 56 27.875 56
Q33.9375 56 38.2812 53.6094
Q42.625 51.2188 45.4062 46.3906
L45.4062 54.6875
L54.3906 54.6875
z
" id="BitstreamVeraSans-Roman-67"/>
      <path d="
M9.42188 54.6875
L18.4062 54.6875
L18.4062 0
L9.42188 0
z

M9.42188 75.9844
L18.4062 75.9844
L18.4062 64.5938
L9.42188 64.5938
z
" id="BitstreamVeraSans-Roman-69"/>
      <path d="
M48.7812 52.5938
L48.7812 44.1875
Q44.9688 46.2969 41.1406 47.3438
Q37.3125 48.3906 33.4062 48.3906
Q24.6562 48.3906 19.8125 42.8438
Q14.9844 37.3125 14.9844 27.2969
Q14.9844 17.2812 19.8125 11.7344
Q24.6562 6.20312 33.4062 6.20312
Q37.3125 6.20312 41.1406 7.25
Q44.9688 8.29688 48.7812 10.4062
L48.7812 2.09375
Q45.0156 0.34375 40.9844 -0.53125
Q36.9688 -1.42188 32.4219 -1.42188
Q20.0625 -1.42188 12.7812 6.34375
Q5.51562 14.1094 5.51562 27.2969
Q5.51562 40.6719 12.8594 48.3281
Q20.2188 56 33.0156 56
Q37.1562 56 41.1094 55.1406
Q45.0625 54.2969 48.7812 52.5938" id="BitstreamVeraSans-Roman-63"/>
      <path d="
M32.1719 -5.07812
Q28.375 -14.8438 24.75 -17.8125
Q21.1406 -20.7969 15.0938 -20.7969
L7.90625 -20.7969
L7.90625 -13.2812
L13.1875 -13.2812
Q16.8906 -13.2812 18.9375 -11.5156
Q21 -9.76562 23.4844 -3.21875
L25.0938 0.875
L2.98438 54.6875
L12.5 54.6875
L29.5938 11.9219
L46.6875 54.6875
L56.2031 54.6875
z
" id="BitstreamVeraSans-Roman-79"/>
      <path d="
M56.2031 29.5938
L56.2031 25.2031
L14.8906 25.2031
Q15.4844 15.9219 20.4844 11.0625
Q25.4844 6.20312 34.4219 6.20312
Q39.5938 6.20312 44.4531 7.46875
Q49.3125 8.73438 54.1094 11.2812
L54.1094 2.78125
Q49.2656 0.734375 44.1875 -0.34375
Q39.1094 -1.42188 33.8906 -1.42188
Q20.7969 -1.42188 13.1562 6.1875
Q5.51562 13.8125 5.51562 26.8125
Q5.51562 40.2344 12.7656 48.1094
Q20.0156 56 32.3281 56
Q43.3594 56 49.7812 48.8906
Q56.2031 41.7969 56.2031 29.5938
M47.2188 32.2344
Q47.125 39.5938 43.0938 43.9844
Q39.0625 48.3906 32.4219 48.3906
Q24.9062 48.3906 20.3906 44.1406
Q15.875 39.8906 15.1875 32.1719
z
" id="BitstreamVeraSans-Roman-65"/>
      <path d="
M64.4062 67.2812
L64.4062 56.8906
Q59.4219 61.5312 53.7812 63.8125
Q48.1406 66.1094 41.7969 66.1094
Q29.2969 66.1094 22.6562 58.4688
Q16.0156 50.8281 16.0156 36.375
Q16.0156 21.9688 22.6562 14.3281
Q29.2969 6.6875 41.7969 6.6875
Q48.1406 6.6875 53.7812 8.98438
Q59.4219 11.2812 64.4062 15.9219
L64.4062 5.60938
Q59.2344 2.09375 53.4375 0.328125
Q47.6562 -1.42188 41.2188 -1.42188
Q24.6562 -1.42188 15.125 8.70312
Q5.60938 18.8438 5.60938 36.375
Q5.60938 53.9531 15.125 64.0781
Q24.6562 74.2188 41.2188 74.2188
Q47.75 74.2188 53.5312 72.4844
Q59.3281 70.75 64.4062 67.2812" id="BitstreamVeraSans-Roman-43"/>
      <path d="
M18.3125 70.2188
L18.3125 54.6875
L36.8125 54.6875
L36.8125 47.7031
L18.3125 47.7031
L18.3125 18.0156
Q18.3125 11.3281 20.1406 9.42188
Q21.9688 7.51562 27.5938 7.51562
L36.8125 7.51562
L36.8125 0
L27.5938 0
Q17.1875 0 13.2344 3.875
Q9.28125 7.76562 9.28125 18.0156
L9.28125 47.7031
L2.6875 47.7031
L2.6875 54.6875
L9.28125 54.6875
L9.28125 70.2188
z
" id="BitstreamVeraSans-Roman-74"/>
      <path d="
M37.1094 75.9844
L37.1094 68.5
L28.5156 68.5
Q23.6875 68.5 21.7969 66.5469
Q19.9219 64.5938 19.9219 59.5156
L19.9219 54.6875
L34.7188 54.6875
L34.7188 47.7031
L19.9219 47.7031
L19.9219 0
L10.8906 0
L10.8906 47.7031
L2.29688 47.7031
L2.29688 54.6875
L10.8906 54.6875
L10.8906 58.5
Q10.8906 67.625 15.1406 71.7969
Q19.3906 75.9844 28.6094 75.9844
z
" id="BitstreamVeraSans-Roman-66"/>
      <path d="
M34.2812 27.4844
Q23.3906 27.4844 19.1875 25
Q14.9844 22.5156 14.9844 16.5
Q14.9844 11.7188 18.1406 8.90625
Q21.2969 6.10938 26.7031 6.10938
Q34.1875 6.10938 38.7031 11.4062
Q43.2188 16.7031 43.2188 25.4844
L43.2188 27.4844
z

M52.2031 31.2031
L52.2031 0
L43.2188 0
L43.2188 8.29688
Q40.1406 3.32812 35.5469 0.953125
Q30.9531 -1.42188 24.3125 -1.42188
Q15.9219 -1.42188 10.9531 3.29688
Q6 8.01562 6 15.9219
Q6 25.1406 12.1719 29.8281
Q18.3594 34.5156 30.6094 34.5156
L43.2188 34.5156
L43.2188 35.4062
Q43.2188 41.6094 39.1406 45
Q35.0625 48.3906 27.6875 48.3906
Q23 48.3906 18.5469 47.2656
Q14.1094 46.1406 10.0156 43.8906
L10.0156 52.2031
Q14.9375 54.1094 19.5781 55.0469
Q24.2188 56 28.6094 56
Q40.4844 56 46.3438 49.8438
Q52.2031 43.7031 52.2031 31.2031" id="BitstreamVeraSans-Roman-61"/>
      <path d="
M44.2812 53.0781
L44.2812 44.5781
Q40.4844 46.5312 36.375 47.5
Q32.2812 48.4844 27.875 48.4844
Q21.1875 48.4844 17.8438 46.4375
Q14.5 44.3906 14.5 40.2812
Q14.5 37.1562 16.8906 35.375
Q19.2812 33.5938 26.5156 31.9844
L29.5938 31.2969
Q39.1562 29.25 43.1875 25.5156
Q47.2188 21.7812 47.2188 15.0938
Q47.2188 7.46875 41.1875 3.01562
Q35.1562 -1.42188 24.6094 -1.42188
Q20.2188 -1.42188 15.4531 -0.5625
Q10.6875 0.296875 5.42188 2
L5.42188 11.2812
Q10.4062 8.6875 15.2344 7.39062
Q20.0625 6.10938 24.8125 6.10938
Q31.1562 6.10938 34.5625 8.28125
Q37.9844 10.4531 37.9844 14.4062
Q37.9844 18.0625 35.5156 20.0156
Q33.0625 21.9688 24.7031 23.7812
L21.5781 24.5156
Q13.2344 26.2656 9.51562 29.9062
Q5.8125 33.5469 5.8125 39.8906
Q5.8125 47.6094 11.2812 51.7969
Q16.75 56 26.8125 56
Q31.7812 56 36.1719 55.2656
Q40.5781 54.5469 44.2812 53.0781" id="BitstreamVeraSans-Roman-73"/>
      <path d="
M18.1094 8.20312
L18.1094 -20.7969
L9.07812 -20.7969
L9.07812 54.6875
L18.1094 54.6875
L18.1094 46.3906
Q20.9531 51.2656 25.2656 53.625
Q29.5938 56 35.5938 56
Q45.5625 56 51.7812 48.0938
Q58.0156 40.1875 58.0156 27.2969
Q58.0156 14.4062 51.7812 6.48438
Q45.5625 -1.42188 35.5938 -1.42188
Q29.5938 -1.42188 25.2656 0.953125
Q20.9531 3.32812 18.1094 8.20312
M48.6875 27.2969
Q48.6875 37.2031 44.6094 42.8438
Q40.5312 48.4844 33.4062 48.4844
Q26.2656 48.4844 22.1875 42.8438
Q18.1094 37.2031 18.1094 27.2969
Q18.1094 17.3906 22.1875 11.75
Q26.2656 6.10938 33.4062 6.10938
Q40.5312 6.10938 44.6094 11.75
Q48.6875 17.3906 48.6875 27.2969" id="BitstreamVeraSans-Roman-70"/>
     </defs>
     <g transform="translate(132.410369318 349.798863636)scale(0.1 -0.1)">
      <use xlink:href="#BitstreamVeraSans-Roman-43"/>
      <use x="69.82421875" xlink:href="#BitstreamVeraSans-Roman-61"/>
      <use x="131.103515625" xlink:href="#BitstreamVeraSans-Roman-70"/>
      <use x="194.580078125" xlink:href="#BitstreamVeraSans-Roman-69"/>
      <use x="222.36328125" xlink:href="#BitstreamVeraSans-Roman-74"/>
      <use x="261.572265625" xlink:href="#BitstreamVeraSans-Roman-61"/>
      <use x="322.8515625" xlink:href="#BitstreamVeraSans-Roman-6c"/>
      <use x="350.634765625" xlink:href="#BitstreamVeraSans-Roman-20"/>
      <use x="382.421875" xlink:href="#BitstreamVeraSans-Roman-73"/>
      <use x="434.521484375" xlink:href="#BitstreamVeraSans-Roman-63"/>
      <use x="489.501953125" xlink:href="#BitstreamVeraSans-Roman-61"/>
      <use x="550.78125" xlink:href="#BitstreamVeraSans-Roman-72"/>
      <use x="589.64453125" xlink:href="#BitstreamVeraSans-Roman-63"/>
      <use x="644.625" xlink:href="#BitstreamVeraSans-Roman-69"/>
      <use x="672.408203125" xlink:href="#BitstreamVeraSans-Roman-74"/>
      <use x="711.6171875" xlink:href="#BitstreamVeraSans-Roman-79"/>
      <use x="770.796875" xlink:href="#BitstreamVeraSans-Roman-20"/>
      <use x="802.583984375" xlink:href="#BitstreamVeraSans-Roman-69"/>
      <use x="830.3671875" xlink:href="#BitstreamVeraSans-Roman-6e"/>
      <use x="893.74609375" xlink:href="#BitstreamVeraSans-Roman-20"/>
      <use x="925.533203125" xlink:href="#BitstreamVeraSans-Roman-66"/>
      <use x="960.73828125" xlink:href="#BitstreamVeraSans-Roman-6f"/>
      <use x="1021.91992188" xlink:href="#BitstreamVeraSans-Roman-72"/>
      <use x="1060.78320312" xlink:href="#BitstreamVeraSans-Roman-65"/>
      <use x="1122.30664062" xlink:href="#BitstreamVeraSans-Roman-69"/>
      <use x="1150.08984375" xlink:href="#BitstreamVeraSans-Roman-67"/>
      <use x="1213.56640625" xlink:href="#BitstreamVeraSans-Roman-6e"/>
      <use x="1276.9453125" xlink:href="#BitstreamVeraSans-Roman-20"/>
      <use x="1308.73242188" xlink:href="#BitstreamVeraSans-Roman-63"/>
      <use x="1363.71289062" xlink:href="#BitstreamVeraSans-Roman-6f"/>
      <use x="1424.89453125" xlink:href="#BitstreamVeraSans-Roman-75"/>
      <use x="1488.2734375" xlink:href="#BitstreamVeraSans-Roman-6e"/>
      <use x="1551.65234375" xlink:href="#BitstreamVeraSans-Roman-74"/>
      <use x="1590.86132812" xlink:href="#BitstreamVeraSans-Roman-72"/>
      <use x="1631.97460938" xlink:href="#BitstreamVeraSans-Roman-79"/>
     </g>
    </g>
   </g>
   <g id="matplotlib.axis_2">
    <g id="ytick_1">
     <g id="line2d_13">
      <defs>
       <path d="
M0 0
L4 0" id="mc8fcea1516" style="stroke:#000000;stroke-linecap:butt;stroke-width:0.5;"/>
      </defs>
      <g>
       <use style="stroke:#000000;stroke-linecap:butt;stroke-width:0.5;" x="90.0" xlink:href="#mc8fcea1516" y="325.636363636"/>
      </g>
     </g>
     <g id="line2d_14">
      <defs>
       <path d="
M0 0
L-4 0" id="m0d5b0a6425" style="stroke:#000000;stroke-linecap:butt;stroke-width:0.5;"/>
      </defs>
      <g>
       <use style="stroke:#000000;stroke-linecap:butt;stroke-width:0.5;" x="343.636363636" xlink:href="#m0d5b0a6425" y="325.636363636"/>
      </g>
     </g>
     <g id="text_7">
      <!-- 0.0% -->
      <g transform="translate(61.80625 329.276207386)scale(0.1 -0.1)">
       <use xlink:href="#BitstreamVeraSans-Roman-30"/>
       <use x="63.623046875" xlink:href="#BitstreamVeraSans-Roman-2e"/>
       <use x="95.41015625" xlink:href="#BitstreamVeraSans-Roman-30"/>
       <use x="159.033203125" xlink:href="#BitstreamVeraSans-Roman-25"/>
      </g>
     </g>
    </g>
    <g id="ytick_2">
     <g id="line2d_15">
      <g>
       <use style="stroke:#000000;stroke-linecap:butt;stroke-width:0.5;" x="90.0" xlink:href="#mc8fcea1516" y="293.931818182"/>
      </g>
     </g>
     <g id="line2d_16">
      <g>
       <use style="stroke:#000000;stroke-linecap:butt;stroke-width:0.5;" x="343.636363636" xlink:href="#m0d5b0a6425" y="293.931818182"/>
      </g>
     </g>
     <g id="text_8">
      <!-- 0.5% -->
      <g transform="translate(61.80625 297.571661932)scale(0.1 -0.1)">
       <use xlink:href="#BitstreamVeraSans-Roman-30"/>
       <use x="63.623046875" xlink:href="#BitstreamVeraSans-Roman-2e"/>
       <use x="95.41015625" xlink:href="#BitstreamVeraSans-Roman-35"/>
       <use x="159.033203125" xlink:href="#BitstreamVeraSans-Roman-25"/>
      </g>
     </g>
    </g>
    <g id="ytick_3">
     <g id="line2d_17">
      <g>
       <use style="stroke:#000000;stroke-linecap:butt;stroke-width:0.5;" x="90.0" xlink:href="#mc8fcea1516" y="262.227272727"/>
      </g>
     </g>
     <g id="line2d_18">
      <g>
       <use style="stroke:#000000;stroke-linecap:butt;stroke-width:0.5;" x="343.636363636" xlink:href="#m0d5b0a6425" y="262.227272727"/>
      </g>
     </g>
     <g id="text_9">
      <!-- 1.0% -->
      <g transform="translate(62.2453125 265.867116477)scale(0.1 -0.1)">
       <use xlink:href="#BitstreamVeraSans-Roman-31"/>
       <use x="63.623046875" xlink:href="#BitstreamVeraSans-Roman-2e"/>
       <use x="95.41015625" xlink:href="#BitstreamVeraSans-Roman-30"/>
       <use x="159.033203125" xlink:href="#BitstreamVeraSans-Roman-25"/>
      </g>
     </g>
    </g>
    <g id="ytick_4">
     <g id="line2d_19">
      <g>
       <use style="stroke:#000000;stroke-linecap:butt;stroke-width:0.5;" x="90.0" xlink:href="#mc8fcea1516" y="230.522727273"/>
      </g>
     </g>
     <g id="line2d_20">
      <g>
       <use style="stroke:#000000;stroke-linecap:butt;stroke-width:0.5;" x="343.636363636" xlink:href="#m0d5b0a6425" y="230.522727273"/>
      </g>
     </g>
     <g id="text_10">
      <!-- 1.5% -->
      <g transform="translate(62.2453125 234.162571023)scale(0.1 -0.1)">
       <use xlink:href="#BitstreamVeraSans-Roman-31"/>
       <use x="63.623046875" xlink:href="#BitstreamVeraSans-Roman-2e"/>
       <use x="95.41015625" xlink:href="#BitstreamVeraSans-Roman-35"/>
       <use x="159.033203125" xlink:href="#BitstreamVeraSans-Roman-25"/>
      </g>
     </g>
    </g>
    <g id="ytick_5">
     <g id="line2d_21">
      <g>
       <use style="stroke:#000000;stroke-linecap:butt;stroke-width:0.5;" x="90.0" xlink:href="#mc8fcea1516" y="198.818181818"/>
      </g>
     </g>
     <g id="line2d_22">
      <g>
       <use style="stroke:#000000;stroke-linecap:butt;stroke-width:0.5;" x="343.636363636" xlink:href="#m0d5b0a6425" y="198.818181818"/>
      </g>
     </g>
     <g id="text_11">
      <!-- 2.0% -->
      <g transform="translate(61.8796875 202.458025568)scale(0.1 -0.1)">
       <use xlink:href="#BitstreamVeraSans-Roman-32"/>
       <use x="63.623046875" xlink:href="#BitstreamVeraSans-Roman-2e"/>
       <use x="95.41015625" xlink:href="#BitstreamVeraSans-Roman-30"/>
       <use x="159.033203125" xlink:href="#BitstreamVeraSans-Roman-25"/>
      </g>
     </g>
    </g>
    <g id="ytick_6">
     <g id="line2d_23">
      <g>
       <use style="stroke:#000000;stroke-linecap:butt;stroke-width:0.5;" x="90.0" xlink:href="#mc8fcea1516" y="167.113636364"/>
      </g>
     </g>
     <g id="line2d_24">
      <g>
       <use style="stroke:#000000;stroke-linecap:butt;stroke-width:0.5;" x="343.636363636" xlink:href="#m0d5b0a6425" y="167.113636364"/>
      </g>
     </g>
     <g id="text_12">
      <!-- 2.5% -->
      <g transform="translate(61.8796875 170.753480114)scale(0.1 -0.1)">
       <use xlink:href="#BitstreamVeraSans-Roman-32"/>
       <use x="63.623046875" xlink:href="#BitstreamVeraSans-Roman-2e"/>
       <use x="95.41015625" xlink:href="#BitstreamVeraSans-Roman-35"/>
       <use x="159.033203125" xlink:href="#BitstreamVeraSans-Roman-25"/>
      </g>
     </g>
    </g>
    <g id="ytick_7">
     <g id="line2d_25">
      <g>
       <use style="stroke:#000000;stroke-linecap:butt;stroke-width:0.5;" x="90.0" xlink:href="#mc8fcea1516" y="135.409090909"/>
      </g>
     </g>
     <g id="line2d_26">
      <g>
       <use style="stroke:#000000;stroke-linecap:butt;stroke-width:0.5;" x="343.636363636" xlink:href="#m0d5b0a6425" y="135.409090909"/>
      </g>
     </g>
     <g id="text_13">
      <!-- 3.0% -->
      <defs>
       <path d="
M40.5781 39.3125
Q47.6562 37.7969 51.625 33
Q55.6094 28.2188 55.6094 21.1875
Q55.6094 10.4062 48.1875 4.48438
Q40.7656 -1.42188 27.0938 -1.42188
Q22.5156 -1.42188 17.6562 -0.515625
Q12.7969 0.390625 7.625 2.20312
L7.625 11.7188
Q11.7188 9.32812 16.5938 8.10938
Q21.4844 6.89062 26.8125 6.89062
Q36.0781 6.89062 40.9375 10.5469
Q45.7969 14.2031 45.7969 21.1875
Q45.7969 27.6406 41.2812 31.2656
Q36.7656 34.9062 28.7188 34.9062
L20.2188 34.9062
L20.2188 43.0156
L29.1094 43.0156
Q36.375 43.0156 40.2344 45.9219
Q44.0938 48.8281 44.0938 54.2969
Q44.0938 59.9062 40.1094 62.9062
Q36.1406 65.9219 28.7188 65.9219
Q24.6562 65.9219 20.0156 65.0312
Q15.375 64.1562 9.8125 62.3125
L9.8125 71.0938
Q15.4375 72.6562 20.3438 73.4375
Q25.25 74.2188 29.5938 74.2188
Q40.8281 74.2188 47.3594 69.1094
Q53.9062 64.0156 53.9062 55.3281
Q53.9062 49.2656 50.4375 45.0938
Q46.9688 40.9219 40.5781 39.3125" id="BitstreamVeraSans-Roman-33"/>
      </defs>
      <g transform="translate(61.909375 139.048934659)scale(0.1 -0.1)">
       <use xlink:href="#BitstreamVeraSans-Roman-33"/>
       <use x="63.623046875" xlink:href="#BitstreamVeraSans-Roman-2e"/>
       <use x="95.41015625" xlink:href="#BitstreamVeraSans-Roman-30"/>
       <use x="159.033203125" xlink:href="#BitstreamVeraSans-Roman-25"/>
      </g>
     </g>
    </g>
    <g id="ytick_8">
     <g id="line2d_27">
      <g>
       <use style="stroke:#000000;stroke-linecap:butt;stroke-width:0.5;" x="90.0" xlink:href="#mc8fcea1516" y="103.704545455"/>
      </g>
     </g>
     <g id="line2d_28">
      <g>
       <use style="stroke:#000000;stroke-linecap:butt;stroke-width:0.5;" x="343.636363636" xlink:href="#m0d5b0a6425" y="103.704545455"/>
      </g>
     </g>
     <g id="text_14">
      <!-- 3.5% -->
      <g transform="translate(61.909375 107.344389205)scale(0.1 -0.1)">
       <use xlink:href="#BitstreamVeraSans-Roman-33"/>
       <use x="63.623046875" xlink:href="#BitstreamVeraSans-Roman-2e"/>
       <use x="95.41015625" xlink:href="#BitstreamVeraSans-Roman-35"/>
       <use x="159.033203125" xlink:href="#BitstreamVeraSans-Roman-25"/>
      </g>
     </g>
    </g>
    <g id="ytick_9">
     <g id="line2d_29">
      <g>
       <use style="stroke:#000000;stroke-linecap:butt;stroke-width:0.5;" x="90.0" xlink:href="#mc8fcea1516" y="72.0"/>
      </g>
     </g>
     <g id="line2d_30">
      <g>
       <use style="stroke:#000000;stroke-linecap:butt;stroke-width:0.5;" x="343.636363636" xlink:href="#m0d5b0a6425" y="72.0"/>
      </g>
     </g>
     <g id="text_15">
      <!-- 4.0% -->
      <defs>
       <path d="
M37.7969 64.3125
L12.8906 25.3906
L37.7969 25.3906
z

M35.2031 72.9062
L47.6094 72.9062
L47.6094 25.3906
L58.0156 25.3906
L58.0156 17.1875
L47.6094 17.1875
L47.6094 0
L37.7969 0
L37.7969 17.1875
L4.89062 17.1875
L4.89062 26.7031
z
" id="BitstreamVeraSans-Roman-34"/>
      </defs>
      <g transform="translate(61.6359375 75.63984375)scale(0.1 -0.1)">
       <use xlink:href="#BitstreamVeraSans-Roman-34"/>
       <use x="63.623046875" xlink:href="#BitstreamVeraSans-Roman-2e"/>
       <use x="95.41015625" xlink:href="#BitstreamVeraSans-Roman-30"/>
       <use x="159.033203125" xlink:href="#BitstreamVeraSans-Roman-25"/>
      </g>
     </g>
    </g>
    <g id="text_16">
     <!-- Welfare gains (low risk aversion) -->
     <defs>
      <path d="
M8.01562 75.875
L15.8281 75.875
Q23.1406 64.3594 26.7812 53.3125
Q30.4219 42.2812 30.4219 31.3906
Q30.4219 20.4531 26.7812 9.375
Q23.1406 -1.70312 15.8281 -13.1875
L8.01562 -13.1875
Q14.5 -2 17.7031 9.0625
Q20.9062 20.125 20.9062 31.3906
Q20.9062 42.6719 17.7031 53.6562
Q14.5 64.6562 8.01562 75.875" id="BitstreamVeraSans-Roman-29"/>
      <path d="
M31 75.875
Q24.4688 64.6562 21.2812 53.6562
Q18.1094 42.6719 18.1094 31.3906
Q18.1094 20.125 21.3125 9.0625
Q24.5156 -2 31 -13.1875
L23.1875 -13.1875
Q15.875 -1.70312 12.2344 9.375
Q8.59375 20.4531 8.59375 31.3906
Q8.59375 42.2812 12.2031 53.3125
Q15.8281 64.3594 23.1875 75.875
z
" id="BitstreamVeraSans-Roman-28"/>
      <path d="
M9.07812 75.9844
L18.1094 75.9844
L18.1094 31.1094
L44.9219 54.6875
L56.3906 54.6875
L27.3906 29.1094
L57.625 0
L45.9062 0
L18.1094 26.7031
L18.1094 0
L9.07812 0
z
" id="BitstreamVeraSans-Roman-6b"/>
      <path d="
M3.32812 72.9062
L13.2812 72.9062
L28.6094 11.2812
L43.8906 72.9062
L54.9844 72.9062
L70.3125 11.2812
L85.5938 72.9062
L95.6094 72.9062
L77.2969 0
L64.8906 0
L49.5156 63.2812
L33.9844 0
L21.5781 0
z
" id="BitstreamVeraSans-Roman-57"/>
      <path d="
M2.98438 54.6875
L12.5 54.6875
L29.5938 8.79688
L46.6875 54.6875
L56.2031 54.6875
L35.6875 0
L23.4844 0
z
" id="BitstreamVeraSans-Roman-76"/>
      <path d="
M4.20312 54.6875
L13.1875 54.6875
L24.4219 12.0156
L35.5938 54.6875
L46.1875 54.6875
L57.4219 12.0156
L68.6094 54.6875
L77.5938 54.6875
L63.2812 0
L52.6875 0
L40.9219 44.8281
L29.1094 0
L18.5 0
z
" id="BitstreamVeraSans-Roman-77"/>
     </defs>
     <g transform="translate(56.6359375 277.786150568)rotate(-90.0)scale(0.1 -0.1)">
      <use xlink:href="#BitstreamVeraSans-Roman-57"/>
      <use x="93.001953125" xlink:href="#BitstreamVeraSans-Roman-65"/>
      <use x="154.525390625" xlink:href="#BitstreamVeraSans-Roman-6c"/>
      <use x="182.30859375" xlink:href="#BitstreamVeraSans-Roman-66"/>
      <use x="217.513671875" xlink:href="#BitstreamVeraSans-Roman-61"/>
      <use x="278.79296875" xlink:href="#BitstreamVeraSans-Roman-72"/>
      <use x="317.65625" xlink:href="#BitstreamVeraSans-Roman-65"/>
      <use x="379.1796875" xlink:href="#BitstreamVeraSans-Roman-20"/>
      <use x="410.966796875" xlink:href="#BitstreamVeraSans-Roman-67"/>
      <use x="474.443359375" xlink:href="#BitstreamVeraSans-Roman-61"/>
      <use x="535.72265625" xlink:href="#BitstreamVeraSans-Roman-69"/>
      <use x="563.505859375" xlink:href="#BitstreamVeraSans-Roman-6e"/>
      <use x="626.884765625" xlink:href="#BitstreamVeraSans-Roman-73"/>
      <use x="678.984375" xlink:href="#BitstreamVeraSans-Roman-20"/>
      <use x="710.771484375" xlink:href="#BitstreamVeraSans-Roman-28"/>
      <use x="749.78515625" xlink:href="#BitstreamVeraSans-Roman-6c"/>
      <use x="777.568359375" xlink:href="#BitstreamVeraSans-Roman-6f"/>
      <use x="838.75" xlink:href="#BitstreamVeraSans-Roman-77"/>
      <use x="920.537109375" xlink:href="#BitstreamVeraSans-Roman-20"/>
      <use x="952.32421875" xlink:href="#BitstreamVeraSans-Roman-72"/>
      <use x="993.4375" xlink:href="#BitstreamVeraSans-Roman-69"/>
      <use x="1021.22070312" xlink:href="#BitstreamVeraSans-Roman-73"/>
      <use x="1073.3203125" xlink:href="#BitstreamVeraSans-Roman-6b"/>
      <use x="1131.23046875" xlink:href="#BitstreamVeraSans-Roman-20"/>
      <use x="1163.01757812" xlink:href="#BitstreamVeraSans-Roman-61"/>
      <use x="1224.296875" xlink:href="#BitstreamVeraSans-Roman-76"/>
      <use x="1283.4765625" xlink:href="#BitstreamVeraSans-Roman-65"/>
      <use x="1345.0" xlink:href="#BitstreamVeraSans-Roman-72"/>
      <use x="1386.11328125" xlink:href="#BitstreamVeraSans-Roman-73"/>
      <use x="1438.21289062" xlink:href="#BitstreamVeraSans-Roman-69"/>
      <use x="1465.99609375" xlink:href="#BitstreamVeraSans-Roman-6f"/>
      <use x="1527.17773438" xlink:href="#BitstreamVeraSans-Roman-6e"/>
      <use x="1590.55664062" xlink:href="#BitstreamVeraSans-Roman-29"/>
     </g>
    </g>
   </g>
   <g id="patch_3">
    <path d="
M90 72
L343.636 72" style="fill:none;stroke:#000000;"/>
   </g>
   <g id="patch_4">
    <path d="
M343.636 325.636
L343.636 72" style="fill:none;stroke:#000000;"/>
   </g>
   <g id="patch_5">
    <path d="
M90 325.636
L343.636 325.636" style="fill:none;stroke:#000000;"/>
   </g>
   <g id="patch_6">
    <path d="
M90 325.636
L90 72" style="fill:none;stroke:#000000;"/>
   </g>
   <g id="text_17">
    <!-- Home -->
    <defs>
     <path d="
M52 44.1875
Q55.375 50.25 60.0625 53.125
Q64.75 56 71.0938 56
Q79.6406 56 84.2812 50.0156
Q88.9219 44.0469 88.9219 33.0156
L88.9219 0
L79.8906 0
L79.8906 32.7188
Q79.8906 40.5781 77.0938 44.375
Q74.3125 48.1875 68.6094 48.1875
Q61.625 48.1875 57.5625 43.5469
Q53.5156 38.9219 53.5156 30.9062
L53.5156 0
L44.4844 0
L44.4844 32.7188
Q44.4844 40.625 41.7031 44.4062
Q38.9219 48.1875 33.1094 48.1875
Q26.2188 48.1875 22.1562 43.5312
Q18.1094 38.875 18.1094 30.9062
L18.1094 0
L9.07812 0
L9.07812 54.6875
L18.1094 54.6875
L18.1094 46.1875
Q21.1875 51.2188 25.4844 53.6094
Q29.7812 56 35.6875 56
Q41.6562 56 45.8281 52.9688
Q50 49.9531 52 44.1875" id="BitstreamVeraSans-Roman-6d"/>
     <path d="
M9.8125 72.9062
L19.6719 72.9062
L19.6719 43.0156
L55.5156 43.0156
L55.5156 72.9062
L65.375 72.9062
L65.375 0
L55.5156 0
L55.5156 34.7188
L19.6719 34.7188
L19.6719 0
L9.8125 0
z
" id="BitstreamVeraSans-Roman-48"/>
    </defs>
    <g transform="translate(200.006931818 67.0)scale(0.12 -0.12)">
     <use xlink:href="#BitstreamVeraSans-Roman-48"/>
     <use x="75.1953125" xlink:href="#BitstreamVeraSans-Roman-6f"/>
     <use x="136.376953125" xlink:href="#BitstreamVeraSans-Roman-6d"/>
     <use x="233.7890625" xlink:href="#BitstreamVeraSans-Roman-65"/>
    </g>
   </g>
  </g>
  <g id="axes_2">
   <g id="patch_7">
    <path d="
M394.364 325.636
L648 325.636
L648 72
L394.364 72
z
" style="fill:#ffffff;"/>
   </g>
   <g id="line2d_31">
    <path clip-path="url(#p872184949c)" d="
M432.409 210.305
L436.809 219.703
L441.209 230.694
L445.609 240.619
L450.008 247.495
L454.408 252.915
L458.808 257.971
L463.208 262.091
L467.608 265.246
L472.007 267.944
L476.407 270.257
L480.807 272.082
L485.207 273.531
L489.607 274.723
L494.006 275.659
L498.406 276.353
L502.806 276.86
L507.206 277.207
L511.606 277.403
L516.006 277.468
L520.405 277.423
L524.805 277.281
L529.205 277.049
L533.605 276.74
L538.005 276.362
L542.404 275.924
L546.804 275.433
L551.204 274.894
L555.604 274.312
L560.004 273.694
L564.404 273.042
L568.803 272.36
L573.203 271.653
L577.603 270.922
L582.003 270.171
L586.403 269.402
L590.802 268.617
L595.202 267.819
L599.602 267.008
L604.002 266.186
L608.402 265.356
L612.801 264.518
L617.201 263.673
L621.601 262.823
L626.001 261.968
L630.401 261.11
L634.801 260.248
L639.2 259.385
L643.6 258.52
L648 257.654" style="fill:none;stroke:#ff0000;"/>
   </g>
   <g id="line2d_32">
    <path clip-path="url(#p872184949c)" d="
M432.409 245.174
L436.809 256.762
L441.209 267.858
L445.609 277.089
L450.008 283.597
L454.408 288.801
L458.808 293.564
L463.208 297.396
L467.608 300.305
L472.007 302.767
L476.407 304.851
L480.807 306.46
L485.207 307.705
L489.607 308.7
L494.006 309.448
L498.406 309.964
L502.806 310.3
L507.206 310.483
L511.606 310.521
L516.006 310.435
L520.405 310.244
L524.805 309.961
L529.205 309.594
L533.605 309.155
L538.005 308.652
L542.404 308.092
L546.804 307.483
L551.204 306.831
L555.604 306.139
L560.004 305.414
L564.404 304.659
L568.803 303.877
L573.203 303.072
L577.603 302.248
L582.003 301.405
L586.403 300.547
L590.802 299.676
L595.202 298.793
L599.602 297.9
L604.002 296.999
L608.402 296.091
L612.801 295.178
L617.201 294.259
L621.601 293.337
L626.001 292.413
L630.401 291.486
L634.801 290.558
L639.2 289.629
L643.6 288.701
L648 287.773" style="fill:none;stroke:#0000ff;stroke-dasharray:6.000000,6.000000;stroke-dashoffset:0.0;stroke-linecap:butt;"/>
   </g>
   <g id="matplotlib.axis_3">
    <g id="xtick_6">
     <g id="line2d_33">
      <g>
       <use style="stroke:#000000;stroke-linecap:butt;stroke-width:0.5;" x="394.363636364" xlink:href="#mcb557df647" y="325.636363636"/>
      </g>
     </g>
     <g id="line2d_34">
      <g>
       <use style="stroke:#000000;stroke-linecap:butt;stroke-width:0.5;" x="394.363636364" xlink:href="#mdad270ee8e" y="72.0"/>
      </g>
     </g>
     <g id="text_18">
      <!-- 0.0% -->
      <g transform="translate(382.266761364 337.058238636)scale(0.1 -0.1)">
       <use xlink:href="#BitstreamVeraSans-Roman-30"/>
       <use x="63.623046875" xlink:href="#BitstreamVeraSans-Roman-2e"/>
       <use x="95.41015625" xlink:href="#BitstreamVeraSans-Roman-30"/>
       <use x="159.033203125" xlink:href="#BitstreamVeraSans-Roman-25"/>
      </g>
     </g>
    </g>
    <g id="xtick_7">
     <g id="line2d_35">
      <g>
       <use style="stroke:#000000;stroke-linecap:butt;stroke-width:0.5;" x="457.772727273" xlink:href="#mcb557df647" y="325.636363636"/>
      </g>
     </g>
     <g id="line2d_36">
      <g>
       <use style="stroke:#000000;stroke-linecap:butt;stroke-width:0.5;" x="457.772727273" xlink:href="#mdad270ee8e" y="72.0"/>
      </g>
     </g>
     <g id="text_19">
      <!-- 50.0% -->
      <g transform="translate(442.550852273 337.058238636)scale(0.1 -0.1)">
       <use xlink:href="#BitstreamVeraSans-Roman-35"/>
       <use x="63.623046875" xlink:href="#BitstreamVeraSans-Roman-30"/>
       <use x="127.24609375" xlink:href="#BitstreamVeraSans-Roman-2e"/>
       <use x="159.033203125" xlink:href="#BitstreamVeraSans-Roman-30"/>
       <use x="222.65625" xlink:href="#BitstreamVeraSans-Roman-25"/>
      </g>
     </g>
    </g>
    <g id="xtick_8">
     <g id="line2d_37">
      <g>
       <use style="stroke:#000000;stroke-linecap:butt;stroke-width:0.5;" x="521.181818182" xlink:href="#mcb557df647" y="325.636363636"/>
      </g>
     </g>
     <g id="line2d_38">
      <g>
       <use style="stroke:#000000;stroke-linecap:butt;stroke-width:0.5;" x="521.181818182" xlink:href="#mdad270ee8e" y="72.0"/>
      </g>
     </g>
     <g id="text_20">
      <!-- 100.0% -->
      <g transform="translate(502.941974432 337.058238636)scale(0.1 -0.1)">
       <use xlink:href="#BitstreamVeraSans-Roman-31"/>
       <use x="63.623046875" xlink:href="#BitstreamVeraSans-Roman-30"/>
       <use x="127.24609375" xlink:href="#BitstreamVeraSans-Roman-30"/>
       <use x="190.869140625" xlink:href="#BitstreamVeraSans-Roman-2e"/>
       <use x="222.65625" xlink:href="#BitstreamVeraSans-Roman-30"/>
       <use x="286.279296875" xlink:href="#BitstreamVeraSans-Roman-25"/>
      </g>
     </g>
    </g>
    <g id="xtick_9">
     <g id="line2d_39">
      <g>
       <use style="stroke:#000000;stroke-linecap:butt;stroke-width:0.5;" x="584.590909091" xlink:href="#mcb557df647" y="325.636363636"/>
      </g>
     </g>
     <g id="line2d_40">
      <g>
       <use style="stroke:#000000;stroke-linecap:butt;stroke-width:0.5;" x="584.590909091" xlink:href="#mdad270ee8e" y="72.0"/>
      </g>
     </g>
     <g id="text_21">
      <!-- 150.0% -->
      <g transform="translate(566.351065341 337.058238636)scale(0.1 -0.1)">
       <use xlink:href="#BitstreamVeraSans-Roman-31"/>
       <use x="63.623046875" xlink:href="#BitstreamVeraSans-Roman-35"/>
       <use x="127.24609375" xlink:href="#BitstreamVeraSans-Roman-30"/>
       <use x="190.869140625" xlink:href="#BitstreamVeraSans-Roman-2e"/>
       <use x="222.65625" xlink:href="#BitstreamVeraSans-Roman-30"/>
       <use x="286.279296875" xlink:href="#BitstreamVeraSans-Roman-25"/>
      </g>
     </g>
    </g>
    <g id="xtick_10">
     <g id="line2d_41">
      <g>
       <use style="stroke:#000000;stroke-linecap:butt;stroke-width:0.5;" x="648.0" xlink:href="#mcb557df647" y="325.636363636"/>
      </g>
     </g>
     <g id="line2d_42">
      <g>
       <use style="stroke:#000000;stroke-linecap:butt;stroke-width:0.5;" x="648.0" xlink:href="#mdad270ee8e" y="72.0"/>
      </g>
     </g>
     <g id="text_22">
      <!-- 200.0% -->
      <g transform="translate(629.57734375 337.058238636)scale(0.1 -0.1)">
       <use xlink:href="#BitstreamVeraSans-Roman-32"/>
       <use x="63.623046875" xlink:href="#BitstreamVeraSans-Roman-30"/>
       <use x="127.24609375" xlink:href="#BitstreamVeraSans-Roman-30"/>
       <use x="190.869140625" xlink:href="#BitstreamVeraSans-Roman-2e"/>
       <use x="222.65625" xlink:href="#BitstreamVeraSans-Roman-30"/>
       <use x="286.279296875" xlink:href="#BitstreamVeraSans-Roman-25"/>
      </g>
     </g>
    </g>
    <g id="text_23">
     <!-- Capital scarcity in foreign country -->
     <g transform="translate(436.774005682 349.798863636)scale(0.1 -0.1)">
      <use xlink:href="#BitstreamVeraSans-Roman-43"/>
      <use x="69.82421875" xlink:href="#BitstreamVeraSans-Roman-61"/>
      <use x="131.103515625" xlink:href="#BitstreamVeraSans-Roman-70"/>
      <use x="194.580078125" xlink:href="#BitstreamVeraSans-Roman-69"/>
      <use x="222.36328125" xlink:href="#BitstreamVeraSans-Roman-74"/>
      <use x="261.572265625" xlink:href="#BitstreamVeraSans-Roman-61"/>
      <use x="322.8515625" xlink:href="#BitstreamVeraSans-Roman-6c"/>
      <use x="350.634765625" xlink:href="#BitstreamVeraSans-Roman-20"/>
      <use x="382.421875" xlink:href="#BitstreamVeraSans-Roman-73"/>
      <use x="434.521484375" xlink:href="#BitstreamVeraSans-Roman-63"/>
      <use x="489.501953125" xlink:href="#BitstreamVeraSans-Roman-61"/>
      <use x="550.78125" xlink:href="#BitstreamVeraSans-Roman-72"/>
      <use x="589.64453125" xlink:href="#BitstreamVeraSans-Roman-63"/>
      <use x="644.625" xlink:href="#BitstreamVeraSans-Roman-69"/>
      <use x="672.408203125" xlink:href="#BitstreamVeraSans-Roman-74"/>
      <use x="711.6171875" xlink:href="#BitstreamVeraSans-Roman-79"/>
      <use x="770.796875" xlink:href="#BitstreamVeraSans-Roman-20"/>
      <use x="802.583984375" xlink:href="#BitstreamVeraSans-Roman-69"/>
      <use x="830.3671875" xlink:href="#BitstreamVeraSans-Roman-6e"/>
      <use x="893.74609375" xlink:href="#BitstreamVeraSans-Roman-20"/>
      <use x="925.533203125" xlink:href="#BitstreamVeraSans-Roman-66"/>
      <use x="960.73828125" xlink:href="#BitstreamVeraSans-Roman-6f"/>
      <use x="1021.91992188" xlink:href="#BitstreamVeraSans-Roman-72"/>
      <use x="1060.78320312" xlink:href="#BitstreamVeraSans-Roman-65"/>
      <use x="1122.30664062" xlink:href="#BitstreamVeraSans-Roman-69"/>
      <use x="1150.08984375" xlink:href="#BitstreamVeraSans-Roman-67"/>
      <use x="1213.56640625" xlink:href="#BitstreamVeraSans-Roman-6e"/>
      <use x="1276.9453125" xlink:href="#BitstreamVeraSans-Roman-20"/>
      <use x="1308.73242188" xlink:href="#BitstreamVeraSans-Roman-63"/>
      <use x="1363.71289062" xlink:href="#BitstreamVeraSans-Roman-6f"/>
      <use x="1424.89453125" xlink:href="#BitstreamVeraSans-Roman-75"/>
      <use x="1488.2734375" xlink:href="#BitstreamVeraSans-Roman-6e"/>
      <use x="1551.65234375" xlink:href="#BitstreamVeraSans-Roman-74"/>
      <use x="1590.86132812" xlink:href="#BitstreamVeraSans-Roman-72"/>
      <use x="1631.97460938" xlink:href="#BitstreamVeraSans-Roman-79"/>
     </g>
    </g>
   </g>
   <g id="matplotlib.axis_4">
    <g id="ytick_10">
     <g id="line2d_43">
      <g>
       <use style="stroke:#000000;stroke-linecap:butt;stroke-width:0.5;" x="394.363636364" xlink:href="#mc8fcea1516" y="325.636363636"/>
      </g>
     </g>
     <g id="line2d_44">
      <g>
       <use style="stroke:#000000;stroke-linecap:butt;stroke-width:0.5;" x="648.0" xlink:href="#m0d5b0a6425" y="325.636363636"/>
      </g>
     </g>
     <g id="text_24">
      <!-- 0.0% -->
      <g transform="translate(366.169886364 329.276207386)scale(0.1 -0.1)">
       <use xlink:href="#BitstreamVeraSans-Roman-30"/>
       <use x="63.623046875" xlink:href="#BitstreamVeraSans-Roman-2e"/>
       <use x="95.41015625" xlink:href="#BitstreamVeraSans-Roman-30"/>
       <use x="159.033203125" xlink:href="#BitstreamVeraSans-Roman-25"/>
      </g>
     </g>
    </g>
    <g id="ytick_11">
     <g id="line2d_45">
      <g>
       <use style="stroke:#000000;stroke-linecap:butt;stroke-width:0.5;" x="394.363636364" xlink:href="#mc8fcea1516" y="293.931818182"/>
      </g>
     </g>
     <g id="line2d_46">
      <g>
       <use style="stroke:#000000;stroke-linecap:butt;stroke-width:0.5;" x="648.0" xlink:href="#m0d5b0a6425" y="293.931818182"/>
      </g>
     </g>
     <g id="text_25">
      <!-- 0.5% -->
      <g transform="translate(366.169886364 297.571661932)scale(0.1 -0.1)">
       <use xlink:href="#BitstreamVeraSans-Roman-30"/>
       <use x="63.623046875" xlink:href="#BitstreamVeraSans-Roman-2e"/>
       <use x="95.41015625" xlink:href="#BitstreamVeraSans-Roman-35"/>
       <use x="159.033203125" xlink:href="#BitstreamVeraSans-Roman-25"/>
      </g>
     </g>
    </g>
    <g id="ytick_12">
     <g id="line2d_47">
      <g>
       <use style="stroke:#000000;stroke-linecap:butt;stroke-width:0.5;" x="394.363636364" xlink:href="#mc8fcea1516" y="262.227272727"/>
      </g>
     </g>
     <g id="line2d_48">
      <g>
       <use style="stroke:#000000;stroke-linecap:butt;stroke-width:0.5;" x="648.0" xlink:href="#m0d5b0a6425" y="262.227272727"/>
      </g>
     </g>
     <g id="text_26">
      <!-- 1.0% -->
      <g transform="translate(366.608948864 265.867116477)scale(0.1 -0.1)">
       <use xlink:href="#BitstreamVeraSans-Roman-31"/>
       <use x="63.623046875" xlink:href="#BitstreamVeraSans-Roman-2e"/>
       <use x="95.41015625" xlink:href="#BitstreamVeraSans-Roman-30"/>
       <use x="159.033203125" xlink:href="#BitstreamVeraSans-Roman-25"/>
      </g>
     </g>
    </g>
    <g id="ytick_13">
     <g id="line2d_49">
      <g>
       <use style="stroke:#000000;stroke-linecap:butt;stroke-width:0.5;" x="394.363636364" xlink:href="#mc8fcea1516" y="230.522727273"/>
      </g>
     </g>
     <g id="line2d_50">
      <g>
       <use style="stroke:#000000;stroke-linecap:butt;stroke-width:0.5;" x="648.0" xlink:href="#m0d5b0a6425" y="230.522727273"/>
      </g>
     </g>
     <g id="text_27">
      <!-- 1.5% -->
      <g transform="translate(366.608948864 234.162571023)scale(0.1 -0.1)">
       <use xlink:href="#BitstreamVeraSans-Roman-31"/>
       <use x="63.623046875" xlink:href="#BitstreamVeraSans-Roman-2e"/>
       <use x="95.41015625" xlink:href="#BitstreamVeraSans-Roman-35"/>
       <use x="159.033203125" xlink:href="#BitstreamVeraSans-Roman-25"/>
      </g>
     </g>
    </g>
    <g id="ytick_14">
     <g id="line2d_51">
      <g>
       <use style="stroke:#000000;stroke-linecap:butt;stroke-width:0.5;" x="394.363636364" xlink:href="#mc8fcea1516" y="198.818181818"/>
      </g>
     </g>
     <g id="line2d_52">
      <g>
       <use style="stroke:#000000;stroke-linecap:butt;stroke-width:0.5;" x="648.0" xlink:href="#m0d5b0a6425" y="198.818181818"/>
      </g>
     </g>
     <g id="text_28">
      <!-- 2.0% -->
      <g transform="translate(366.243323864 202.458025568)scale(0.1 -0.1)">
       <use xlink:href="#BitstreamVeraSans-Roman-32"/>
       <use x="63.623046875" xlink:href="#BitstreamVeraSans-Roman-2e"/>
       <use x="95.41015625" xlink:href="#BitstreamVeraSans-Roman-30"/>
       <use x="159.033203125" xlink:href="#BitstreamVeraSans-Roman-25"/>
      </g>
     </g>
    </g>
    <g id="ytick_15">
     <g id="line2d_53">
      <g>
       <use style="stroke:#000000;stroke-linecap:butt;stroke-width:0.5;" x="394.363636364" xlink:href="#mc8fcea1516" y="167.113636364"/>
      </g>
     </g>
     <g id="line2d_54">
      <g>
       <use style="stroke:#000000;stroke-linecap:butt;stroke-width:0.5;" x="648.0" xlink:href="#m0d5b0a6425" y="167.113636364"/>
      </g>
     </g>
     <g id="text_29">
      <!-- 2.5% -->
      <g transform="translate(366.243323864 170.753480114)scale(0.1 -0.1)">
       <use xlink:href="#BitstreamVeraSans-Roman-32"/>
       <use x="63.623046875" xlink:href="#BitstreamVeraSans-Roman-2e"/>
       <use x="95.41015625" xlink:href="#BitstreamVeraSans-Roman-35"/>
       <use x="159.033203125" xlink:href="#BitstreamVeraSans-Roman-25"/>
      </g>
     </g>
    </g>
    <g id="ytick_16">
     <g id="line2d_55">
      <g>
       <use style="stroke:#000000;stroke-linecap:butt;stroke-width:0.5;" x="394.363636364" xlink:href="#mc8fcea1516" y="135.409090909"/>
      </g>
     </g>
     <g id="line2d_56">
      <g>
       <use style="stroke:#000000;stroke-linecap:butt;stroke-width:0.5;" x="648.0" xlink:href="#m0d5b0a6425" y="135.409090909"/>
      </g>
     </g>
     <g id="text_30">
      <!-- 3.0% -->
      <g transform="translate(366.273011364 139.048934659)scale(0.1 -0.1)">
       <use xlink:href="#BitstreamVeraSans-Roman-33"/>
       <use x="63.623046875" xlink:href="#BitstreamVeraSans-Roman-2e"/>
       <use x="95.41015625" xlink:href="#BitstreamVeraSans-Roman-30"/>
       <use x="159.033203125" xlink:href="#BitstreamVeraSans-Roman-25"/>
      </g>
     </g>
    </g>
    <g id="ytick_17">
     <g id="line2d_57">
      <g>
       <use style="stroke:#000000;stroke-linecap:butt;stroke-width:0.5;" x="394.363636364" xlink:href="#mc8fcea1516" y="103.704545455"/>
      </g>
     </g>
     <g id="line2d_58">
      <g>
       <use style="stroke:#000000;stroke-linecap:butt;stroke-width:0.5;" x="648.0" xlink:href="#m0d5b0a6425" y="103.704545455"/>
      </g>
     </g>
     <g id="text_31">
      <!-- 3.5% -->
      <g transform="translate(366.273011364 107.344389205)scale(0.1 -0.1)">
       <use xlink:href="#BitstreamVeraSans-Roman-33"/>
       <use x="63.623046875" xlink:href="#BitstreamVeraSans-Roman-2e"/>
       <use x="95.41015625" xlink:href="#BitstreamVeraSans-Roman-35"/>
       <use x="159.033203125" xlink:href="#BitstreamVeraSans-Roman-25"/>
      </g>
     </g>
    </g>
    <g id="ytick_18">
     <g id="line2d_59">
      <g>
       <use style="stroke:#000000;stroke-linecap:butt;stroke-width:0.5;" x="394.363636364" xlink:href="#mc8fcea1516" y="72.0"/>
      </g>
     </g>
     <g id="line2d_60">
      <g>
       <use style="stroke:#000000;stroke-linecap:butt;stroke-width:0.5;" x="648.0" xlink:href="#m0d5b0a6425" y="72.0"/>
      </g>
     </g>
     <g id="text_32">
      <!-- 4.0% -->
      <g transform="translate(365.999573864 75.63984375)scale(0.1 -0.1)">
       <use xlink:href="#BitstreamVeraSans-Roman-34"/>
       <use x="63.623046875" xlink:href="#BitstreamVeraSans-Roman-2e"/>
       <use x="95.41015625" xlink:href="#BitstreamVeraSans-Roman-30"/>
       <use x="159.033203125" xlink:href="#BitstreamVeraSans-Roman-25"/>
      </g>
     </g>
    </g>
   </g>
   <g id="patch_8">
    <path d="
M394.364 72
L648 72" style="fill:none;stroke:#000000;"/>
   </g>
   <g id="patch_9">
    <path d="
M648 325.636
L648 72" style="fill:none;stroke:#000000;"/>
   </g>
   <g id="patch_10">
    <path d="
M394.364 325.636
L648 325.636" style="fill:none;stroke:#000000;"/>
   </g>
   <g id="patch_11">
    <path d="
M394.364 325.636
L394.364 72" style="fill:none;stroke:#000000;"/>
   </g>
   <g id="text_33">
    <!-- Foreign -->
    <defs>
     <path d="
M9.8125 72.9062
L51.7031 72.9062
L51.7031 64.5938
L19.6719 64.5938
L19.6719 43.1094
L48.5781 43.1094
L48.5781 34.8125
L19.6719 34.8125
L19.6719 0
L9.8125 0
z
" id="BitstreamVeraSans-Roman-46"/>
    </defs>
    <g transform="translate(500.073068182 67.0)scale(0.12 -0.12)">
     <use xlink:href="#BitstreamVeraSans-Roman-46"/>
     <use x="53.89453125" xlink:href="#BitstreamVeraSans-Roman-6f"/>
     <use x="115.076171875" xlink:href="#BitstreamVeraSans-Roman-72"/>
     <use x="153.939453125" xlink:href="#BitstreamVeraSans-Roman-65"/>
     <use x="215.462890625" xlink:href="#BitstreamVeraSans-Roman-69"/>
     <use x="243.24609375" xlink:href="#BitstreamVeraSans-Roman-67"/>
     <use x="306.72265625" xlink:href="#BitstreamVeraSans-Roman-6e"/>
    </g>
   </g>
   <g id="legend_1">
    <g id="patch_12">
     <path d="
M490.689 116.827
L642 116.827
L642 78
L490.689 78
L490.689 116.827
z
" style="fill:#ffffff;stroke:#000000;"/>
    </g>
    <g id="line2d_61">
     <path d="
M499.089 87.7181
L515.889 87.7181" style="fill:none;stroke:#ff0000;"/>
    </g>
    <g id="line2d_62"/>
    <g id="text_34">
     <!-- complete markets -->
     <g transform="translate(529.089375 91.918125)scale(0.12 -0.12)">
      <use xlink:href="#BitstreamVeraSans-Roman-63"/>
      <use x="54.98046875" xlink:href="#BitstreamVeraSans-Roman-6f"/>
      <use x="116.162109375" xlink:href="#BitstreamVeraSans-Roman-6d"/>
      <use x="213.57421875" xlink:href="#BitstreamVeraSans-Roman-70"/>
      <use x="277.05078125" xlink:href="#BitstreamVeraSans-Roman-6c"/>
      <use x="304.833984375" xlink:href="#BitstreamVeraSans-Roman-65"/>
      <use x="366.357421875" xlink:href="#BitstreamVeraSans-Roman-74"/>
      <use x="405.56640625" xlink:href="#BitstreamVeraSans-Roman-65"/>
      <use x="467.08984375" xlink:href="#BitstreamVeraSans-Roman-20"/>
      <use x="498.876953125" xlink:href="#BitstreamVeraSans-Roman-6d"/>
      <use x="596.2890625" xlink:href="#BitstreamVeraSans-Roman-61"/>
      <use x="657.568359375" xlink:href="#BitstreamVeraSans-Roman-72"/>
      <use x="698.681640625" xlink:href="#BitstreamVeraSans-Roman-6b"/>
      <use x="752.966796875" xlink:href="#BitstreamVeraSans-Roman-65"/>
      <use x="814.490234375" xlink:href="#BitstreamVeraSans-Roman-74"/>
      <use x="853.69921875" xlink:href="#BitstreamVeraSans-Roman-73"/>
     </g>
    </g>
    <g id="line2d_63">
     <path d="
M499.089 105.332
L515.889 105.332" style="fill:none;stroke:#0000ff;stroke-dasharray:6.000000,6.000000;stroke-dashoffset:0.0;stroke-linecap:butt;"/>
    </g>
    <g id="line2d_64"/>
    <g id="text_35">
     <!-- partial integration -->
     <g transform="translate(529.089375 109.531875)scale(0.12 -0.12)">
      <use xlink:href="#BitstreamVeraSans-Roman-70"/>
      <use x="63.4765625" xlink:href="#BitstreamVeraSans-Roman-61"/>
      <use x="124.755859375" xlink:href="#BitstreamVeraSans-Roman-72"/>
      <use x="165.869140625" xlink:href="#BitstreamVeraSans-Roman-74"/>
      <use x="205.078125" xlink:href="#BitstreamVeraSans-Roman-69"/>
      <use x="232.861328125" xlink:href="#BitstreamVeraSans-Roman-61"/>
      <use x="294.140625" xlink:href="#BitstreamVeraSans-Roman-6c"/>
      <use x="321.923828125" xlink:href="#BitstreamVeraSans-Roman-20"/>
      <use x="353.7109375" xlink:href="#BitstreamVeraSans-Roman-69"/>
      <use x="381.494140625" xlink:href="#BitstreamVeraSans-Roman-6e"/>
      <use x="444.873046875" xlink:href="#BitstreamVeraSans-Roman-74"/>
      <use x="484.08203125" xlink:href="#BitstreamVeraSans-Roman-65"/>
      <use x="545.60546875" xlink:href="#BitstreamVeraSans-Roman-67"/>
      <use x="609.08203125" xlink:href="#BitstreamVeraSans-Roman-72"/>
      <use x="650.1953125" xlink:href="#BitstreamVeraSans-Roman-61"/>
      <use x="711.474609375" xlink:href="#BitstreamVeraSans-Roman-74"/>
      <use x="750.68359375" xlink:href="#BitstreamVeraSans-Roman-69"/>
      <use x="778.466796875" xlink:href="#BitstreamVeraSans-Roman-6f"/>
      <use x="839.6484375" xlink:href="#BitstreamVeraSans-Roman-6e"/>
     </g>
    </g>
   </g>
  </g>
  <g id="axes_3">
   <g id="patch_13">
    <path d="
M90 630
L343.636 630
L343.636 376.364
L90 376.364
z
" style="fill:#ffffff;"/>
   </g>
   <g id="line2d_65">
    <path clip-path="url(#p62fb68c778)" d="
M128.045 569.301
L132.445 570.03
L136.845 570.434
L141.245 570.414
L145.645 570.11
L150.045 569.574
L154.444 568.83
L158.844 567.915
L163.244 566.854
L167.644 565.667
L172.044 564.371
L176.443 562.981
L180.843 561.509
L185.243 559.965
L189.643 558.359
L194.043 556.699
L198.442 554.99
L202.842 553.238
L207.242 551.45
L211.642 549.628
L216.042 547.778
L220.442 545.903
L224.841 544.005
L229.241 542.088
L233.641 540.155
L238.041 538.206
L242.441 536.244
L246.84 534.272
L251.24 532.29
L255.64 530.3
L260.04 528.304
L264.44 526.302
L268.84 524.295
L273.239 522.285
L277.639 520.273
L282.039 518.259
L286.439 516.244
L290.839 514.228
L295.238 512.213
L299.638 510.198
L304.038 508.185
L308.438 506.173
L312.838 504.164
L317.237 502.157
L321.637 500.153
L326.037 498.152
L330.437 496.155
L334.837 494.161
L339.237 492.172
L343.636 490.186" style="fill:none;stroke:#0000ff;stroke-dasharray:6.000000,6.000000;stroke-dashoffset:0.0;stroke-linecap:butt;"/>
   </g>
   <g id="line2d_66">
    <path clip-path="url(#p62fb68c778)" d="
M128.045 385.525
L132.445 391.068
L136.845 395.443
L141.245 399.202
L145.645 402.317
L150.045 404.875
L154.444 406.989
L158.844 408.713
L163.244 410.099
L167.644 411.19
L172.044 412.024
L176.443 412.63
L180.843 413.034
L185.243 413.258
L189.643 413.321
L194.043 413.24
L198.442 413.029
L202.842 412.701
L207.242 412.266
L211.642 411.735
L216.042 411.116
L220.442 410.417
L224.841 409.645
L229.241 408.806
L233.641 407.906
L238.041 406.949
L242.441 405.941
L246.84 404.886
L251.24 403.787
L255.64 402.647
L260.04 401.47
L264.44 400.259
L268.84 399.016
L273.239 397.744
L277.639 396.445
L282.039 395.121
L286.439 393.774
L290.839 392.405
L295.238 391.017
L299.638 389.61
L304.038 388.187
L308.438 386.747
L312.838 385.293
L317.237 383.826
L321.637 382.347
L326.037 380.856
L330.437 379.354
L334.837 377.843
L339.237 376.323
L343.636 374.795" style="fill:none;stroke:#ff0000;"/>
   </g>
   <g id="matplotlib.axis_5">
    <g id="xtick_11">
     <g id="line2d_67">
      <g>
       <use style="stroke:#000000;stroke-linecap:butt;stroke-width:0.5;" x="90.0" xlink:href="#mcb557df647" y="630.0"/>
      </g>
     </g>
     <g id="line2d_68">
      <g>
       <use style="stroke:#000000;stroke-linecap:butt;stroke-width:0.5;" x="90.0" xlink:href="#mdad270ee8e" y="376.363636364"/>
      </g>
     </g>
     <g id="text_36">
      <!-- 0.0% -->
      <g transform="translate(77.903125 641.421875)scale(0.1 -0.1)">
       <use xlink:href="#BitstreamVeraSans-Roman-30"/>
       <use x="63.623046875" xlink:href="#BitstreamVeraSans-Roman-2e"/>
       <use x="95.41015625" xlink:href="#BitstreamVeraSans-Roman-30"/>
       <use x="159.033203125" xlink:href="#BitstreamVeraSans-Roman-25"/>
      </g>
     </g>
    </g>
    <g id="xtick_12">
     <g id="line2d_69">
      <g>
       <use style="stroke:#000000;stroke-linecap:butt;stroke-width:0.5;" x="153.409090909" xlink:href="#mcb557df647" y="630.0"/>
      </g>
     </g>
     <g id="line2d_70">
      <g>
       <use style="stroke:#000000;stroke-linecap:butt;stroke-width:0.5;" x="153.409090909" xlink:href="#mdad270ee8e" y="376.363636364"/>
      </g>
     </g>
     <g id="text_37">
      <!-- 50.0% -->
      <g transform="translate(138.187215909 641.421875)scale(0.1 -0.1)">
       <use xlink:href="#BitstreamVeraSans-Roman-35"/>
       <use x="63.623046875" xlink:href="#BitstreamVeraSans-Roman-30"/>
       <use x="127.24609375" xlink:href="#BitstreamVeraSans-Roman-2e"/>
       <use x="159.033203125" xlink:href="#BitstreamVeraSans-Roman-30"/>
       <use x="222.65625" xlink:href="#BitstreamVeraSans-Roman-25"/>
      </g>
     </g>
    </g>
    <g id="xtick_13">
     <g id="line2d_71">
      <g>
       <use style="stroke:#000000;stroke-linecap:butt;stroke-width:0.5;" x="216.818181818" xlink:href="#mcb557df647" y="630.0"/>
      </g>
     </g>
     <g id="line2d_72">
      <g>
       <use style="stroke:#000000;stroke-linecap:butt;stroke-width:0.5;" x="216.818181818" xlink:href="#mdad270ee8e" y="376.363636364"/>
      </g>
     </g>
     <g id="text_38">
      <!-- 100.0% -->
      <g transform="translate(198.578338068 641.421875)scale(0.1 -0.1)">
       <use xlink:href="#BitstreamVeraSans-Roman-31"/>
       <use x="63.623046875" xlink:href="#BitstreamVeraSans-Roman-30"/>
       <use x="127.24609375" xlink:href="#BitstreamVeraSans-Roman-30"/>
       <use x="190.869140625" xlink:href="#BitstreamVeraSans-Roman-2e"/>
       <use x="222.65625" xlink:href="#BitstreamVeraSans-Roman-30"/>
       <use x="286.279296875" xlink:href="#BitstreamVeraSans-Roman-25"/>
      </g>
     </g>
    </g>
    <g id="xtick_14">
     <g id="line2d_73">
      <g>
       <use style="stroke:#000000;stroke-linecap:butt;stroke-width:0.5;" x="280.227272727" xlink:href="#mcb557df647" y="630.0"/>
      </g>
     </g>
     <g id="line2d_74">
      <g>
       <use style="stroke:#000000;stroke-linecap:butt;stroke-width:0.5;" x="280.227272727" xlink:href="#mdad270ee8e" y="376.363636364"/>
      </g>
     </g>
     <g id="text_39">
      <!-- 150.0% -->
      <g transform="translate(261.987428977 641.421875)scale(0.1 -0.1)">
       <use xlink:href="#BitstreamVeraSans-Roman-31"/>
       <use x="63.623046875" xlink:href="#BitstreamVeraSans-Roman-35"/>
       <use x="127.24609375" xlink:href="#BitstreamVeraSans-Roman-30"/>
       <use x="190.869140625" xlink:href="#BitstreamVeraSans-Roman-2e"/>
       <use x="222.65625" xlink:href="#BitstreamVeraSans-Roman-30"/>
       <use x="286.279296875" xlink:href="#BitstreamVeraSans-Roman-25"/>
      </g>
     </g>
    </g>
    <g id="xtick_15">
     <g id="line2d_75">
      <g>
       <use style="stroke:#000000;stroke-linecap:butt;stroke-width:0.5;" x="343.636363636" xlink:href="#mcb557df647" y="630.0"/>
      </g>
     </g>
     <g id="line2d_76">
      <g>
       <use style="stroke:#000000;stroke-linecap:butt;stroke-width:0.5;" x="343.636363636" xlink:href="#mdad270ee8e" y="376.363636364"/>
      </g>
     </g>
     <g id="text_40">
      <!-- 200.0% -->
      <g transform="translate(325.213707386 641.421875)scale(0.1 -0.1)">
       <use xlink:href="#BitstreamVeraSans-Roman-32"/>
       <use x="63.623046875" xlink:href="#BitstreamVeraSans-Roman-30"/>
       <use x="127.24609375" xlink:href="#BitstreamVeraSans-Roman-30"/>
       <use x="190.869140625" xlink:href="#BitstreamVeraSans-Roman-2e"/>
       <use x="222.65625" xlink:href="#BitstreamVeraSans-Roman-30"/>
       <use x="286.279296875" xlink:href="#BitstreamVeraSans-Roman-25"/>
      </g>
     </g>
    </g>
    <g id="text_41">
     <!-- Capital scarcity in foreign country -->
     <g transform="translate(132.410369318 654.1625)scale(0.1 -0.1)">
      <use xlink:href="#BitstreamVeraSans-Roman-43"/>
      <use x="69.82421875" xlink:href="#BitstreamVeraSans-Roman-61"/>
      <use x="131.103515625" xlink:href="#BitstreamVeraSans-Roman-70"/>
      <use x="194.580078125" xlink:href="#BitstreamVeraSans-Roman-69"/>
      <use x="222.36328125" xlink:href="#BitstreamVeraSans-Roman-74"/>
      <use x="261.572265625" xlink:href="#BitstreamVeraSans-Roman-61"/>
      <use x="322.8515625" xlink:href="#BitstreamVeraSans-Roman-6c"/>
      <use x="350.634765625" xlink:href="#BitstreamVeraSans-Roman-20"/>
      <use x="382.421875" xlink:href="#BitstreamVeraSans-Roman-73"/>
      <use x="434.521484375" xlink:href="#BitstreamVeraSans-Roman-63"/>
      <use x="489.501953125" xlink:href="#BitstreamVeraSans-Roman-61"/>
      <use x="550.78125" xlink:href="#BitstreamVeraSans-Roman-72"/>
      <use x="589.64453125" xlink:href="#BitstreamVeraSans-Roman-63"/>
      <use x="644.625" xlink:href="#BitstreamVeraSans-Roman-69"/>
      <use x="672.408203125" xlink:href="#BitstreamVeraSans-Roman-74"/>
      <use x="711.6171875" xlink:href="#BitstreamVeraSans-Roman-79"/>
      <use x="770.796875" xlink:href="#BitstreamVeraSans-Roman-20"/>
      <use x="802.583984375" xlink:href="#BitstreamVeraSans-Roman-69"/>
      <use x="830.3671875" xlink:href="#BitstreamVeraSans-Roman-6e"/>
      <use x="893.74609375" xlink:href="#BitstreamVeraSans-Roman-20"/>
      <use x="925.533203125" xlink:href="#BitstreamVeraSans-Roman-66"/>
      <use x="960.73828125" xlink:href="#BitstreamVeraSans-Roman-6f"/>
      <use x="1021.91992188" xlink:href="#BitstreamVeraSans-Roman-72"/>
      <use x="1060.78320312" xlink:href="#BitstreamVeraSans-Roman-65"/>
      <use x="1122.30664062" xlink:href="#BitstreamVeraSans-Roman-69"/>
      <use x="1150.08984375" xlink:href="#BitstreamVeraSans-Roman-67"/>
      <use x="1213.56640625" xlink:href="#BitstreamVeraSans-Roman-6e"/>
      <use x="1276.9453125" xlink:href="#BitstreamVeraSans-Roman-20"/>
      <use x="1308.73242188" xlink:href="#BitstreamVeraSans-Roman-63"/>
      <use x="1363.71289062" xlink:href="#BitstreamVeraSans-Roman-6f"/>
      <use x="1424.89453125" xlink:href="#BitstreamVeraSans-Roman-75"/>
      <use x="1488.2734375" xlink:href="#BitstreamVeraSans-Roman-6e"/>
      <use x="1551.65234375" xlink:href="#BitstreamVeraSans-Roman-74"/>
      <use x="1590.86132812" xlink:href="#BitstreamVeraSans-Roman-72"/>
      <use x="1631.97460938" xlink:href="#BitstreamVeraSans-Roman-79"/>
     </g>
    </g>
   </g>
   <g id="matplotlib.axis_6">
    <g id="ytick_19">
     <g id="line2d_77">
      <g>
       <use style="stroke:#000000;stroke-linecap:butt;stroke-width:0.5;" x="90.0" xlink:href="#mc8fcea1516" y="630.0"/>
      </g>
     </g>
     <g id="line2d_78">
      <g>
       <use style="stroke:#000000;stroke-linecap:butt;stroke-width:0.5;" x="343.636363636" xlink:href="#m0d5b0a6425" y="630.0"/>
      </g>
     </g>
     <g id="text_42">
      <!-- 0.0% -->
      <g transform="translate(61.80625 633.63984375)scale(0.1 -0.1)">
       <use xlink:href="#BitstreamVeraSans-Roman-30"/>
       <use x="63.623046875" xlink:href="#BitstreamVeraSans-Roman-2e"/>
       <use x="95.41015625" xlink:href="#BitstreamVeraSans-Roman-30"/>
       <use x="159.033203125" xlink:href="#BitstreamVeraSans-Roman-25"/>
      </g>
     </g>
    </g>
    <g id="ytick_20">
     <g id="line2d_79">
      <g>
       <use style="stroke:#000000;stroke-linecap:butt;stroke-width:0.5;" x="90.0" xlink:href="#mc8fcea1516" y="598.295454545"/>
      </g>
     </g>
     <g id="line2d_80">
      <g>
       <use style="stroke:#000000;stroke-linecap:butt;stroke-width:0.5;" x="343.636363636" xlink:href="#m0d5b0a6425" y="598.295454545"/>
      </g>
     </g>
     <g id="text_43">
      <!-- 0.5% -->
      <g transform="translate(61.80625 601.935298295)scale(0.1 -0.1)">
       <use xlink:href="#BitstreamVeraSans-Roman-30"/>
       <use x="63.623046875" xlink:href="#BitstreamVeraSans-Roman-2e"/>
       <use x="95.41015625" xlink:href="#BitstreamVeraSans-Roman-35"/>
       <use x="159.033203125" xlink:href="#BitstreamVeraSans-Roman-25"/>
      </g>
     </g>
    </g>
    <g id="ytick_21">
     <g id="line2d_81">
      <g>
       <use style="stroke:#000000;stroke-linecap:butt;stroke-width:0.5;" x="90.0" xlink:href="#mc8fcea1516" y="566.590909091"/>
      </g>
     </g>
     <g id="line2d_82">
      <g>
       <use style="stroke:#000000;stroke-linecap:butt;stroke-width:0.5;" x="343.636363636" xlink:href="#m0d5b0a6425" y="566.590909091"/>
      </g>
     </g>
     <g id="text_44">
      <!-- 1.0% -->
      <g transform="translate(62.2453125 570.230752841)scale(0.1 -0.1)">
       <use xlink:href="#BitstreamVeraSans-Roman-31"/>
       <use x="63.623046875" xlink:href="#BitstreamVeraSans-Roman-2e"/>
       <use x="95.41015625" xlink:href="#BitstreamVeraSans-Roman-30"/>
       <use x="159.033203125" xlink:href="#BitstreamVeraSans-Roman-25"/>
      </g>
     </g>
    </g>
    <g id="ytick_22">
     <g id="line2d_83">
      <g>
       <use style="stroke:#000000;stroke-linecap:butt;stroke-width:0.5;" x="90.0" xlink:href="#mc8fcea1516" y="534.886363636"/>
      </g>
     </g>
     <g id="line2d_84">
      <g>
       <use style="stroke:#000000;stroke-linecap:butt;stroke-width:0.5;" x="343.636363636" xlink:href="#m0d5b0a6425" y="534.886363636"/>
      </g>
     </g>
     <g id="text_45">
      <!-- 1.5% -->
      <g transform="translate(62.2453125 538.526207386)scale(0.1 -0.1)">
       <use xlink:href="#BitstreamVeraSans-Roman-31"/>
       <use x="63.623046875" xlink:href="#BitstreamVeraSans-Roman-2e"/>
       <use x="95.41015625" xlink:href="#BitstreamVeraSans-Roman-35"/>
       <use x="159.033203125" xlink:href="#BitstreamVeraSans-Roman-25"/>
      </g>
     </g>
    </g>
    <g id="ytick_23">
     <g id="line2d_85">
      <g>
       <use style="stroke:#000000;stroke-linecap:butt;stroke-width:0.5;" x="90.0" xlink:href="#mc8fcea1516" y="503.181818182"/>
      </g>
     </g>
     <g id="line2d_86">
      <g>
       <use style="stroke:#000000;stroke-linecap:butt;stroke-width:0.5;" x="343.636363636" xlink:href="#m0d5b0a6425" y="503.181818182"/>
      </g>
     </g>
     <g id="text_46">
      <!-- 2.0% -->
      <g transform="translate(61.8796875 506.821661932)scale(0.1 -0.1)">
       <use xlink:href="#BitstreamVeraSans-Roman-32"/>
       <use x="63.623046875" xlink:href="#BitstreamVeraSans-Roman-2e"/>
       <use x="95.41015625" xlink:href="#BitstreamVeraSans-Roman-30"/>
       <use x="159.033203125" xlink:href="#BitstreamVeraSans-Roman-25"/>
      </g>
     </g>
    </g>
    <g id="ytick_24">
     <g id="line2d_87">
      <g>
       <use style="stroke:#000000;stroke-linecap:butt;stroke-width:0.5;" x="90.0" xlink:href="#mc8fcea1516" y="471.477272727"/>
      </g>
     </g>
     <g id="line2d_88">
      <g>
       <use style="stroke:#000000;stroke-linecap:butt;stroke-width:0.5;" x="343.636363636" xlink:href="#m0d5b0a6425" y="471.477272727"/>
      </g>
     </g>
     <g id="text_47">
      <!-- 2.5% -->
      <g transform="translate(61.8796875 475.117116477)scale(0.1 -0.1)">
       <use xlink:href="#BitstreamVeraSans-Roman-32"/>
       <use x="63.623046875" xlink:href="#BitstreamVeraSans-Roman-2e"/>
       <use x="95.41015625" xlink:href="#BitstreamVeraSans-Roman-35"/>
       <use x="159.033203125" xlink:href="#BitstreamVeraSans-Roman-25"/>
      </g>
     </g>
    </g>
    <g id="ytick_25">
     <g id="line2d_89">
      <g>
       <use style="stroke:#000000;stroke-linecap:butt;stroke-width:0.5;" x="90.0" xlink:href="#mc8fcea1516" y="439.772727273"/>
      </g>
     </g>
     <g id="line2d_90">
      <g>
       <use style="stroke:#000000;stroke-linecap:butt;stroke-width:0.5;" x="343.636363636" xlink:href="#m0d5b0a6425" y="439.772727273"/>
      </g>
     </g>
     <g id="text_48">
      <!-- 3.0% -->
      <g transform="translate(61.909375 443.412571023)scale(0.1 -0.1)">
       <use xlink:href="#BitstreamVeraSans-Roman-33"/>
       <use x="63.623046875" xlink:href="#BitstreamVeraSans-Roman-2e"/>
       <use x="95.41015625" xlink:href="#BitstreamVeraSans-Roman-30"/>
       <use x="159.033203125" xlink:href="#BitstreamVeraSans-Roman-25"/>
      </g>
     </g>
    </g>
    <g id="ytick_26">
     <g id="line2d_91">
      <g>
       <use style="stroke:#000000;stroke-linecap:butt;stroke-width:0.5;" x="90.0" xlink:href="#mc8fcea1516" y="408.068181818"/>
      </g>
     </g>
     <g id="line2d_92">
      <g>
       <use style="stroke:#000000;stroke-linecap:butt;stroke-width:0.5;" x="343.636363636" xlink:href="#m0d5b0a6425" y="408.068181818"/>
      </g>
     </g>
     <g id="text_49">
      <!-- 3.5% -->
      <g transform="translate(61.909375 411.708025568)scale(0.1 -0.1)">
       <use xlink:href="#BitstreamVeraSans-Roman-33"/>
       <use x="63.623046875" xlink:href="#BitstreamVeraSans-Roman-2e"/>
       <use x="95.41015625" xlink:href="#BitstreamVeraSans-Roman-35"/>
       <use x="159.033203125" xlink:href="#BitstreamVeraSans-Roman-25"/>
      </g>
     </g>
    </g>
    <g id="ytick_27">
     <g id="line2d_93">
      <g>
       <use style="stroke:#000000;stroke-linecap:butt;stroke-width:0.5;" x="90.0" xlink:href="#mc8fcea1516" y="376.363636364"/>
      </g>
     </g>
     <g id="line2d_94">
      <g>
       <use style="stroke:#000000;stroke-linecap:butt;stroke-width:0.5;" x="343.636363636" xlink:href="#m0d5b0a6425" y="376.363636364"/>
      </g>
     </g>
     <g id="text_50">
      <!-- 4.0% -->
      <g transform="translate(61.6359375 380.003480114)scale(0.1 -0.1)">
       <use xlink:href="#BitstreamVeraSans-Roman-34"/>
       <use x="63.623046875" xlink:href="#BitstreamVeraSans-Roman-2e"/>
       <use x="95.41015625" xlink:href="#BitstreamVeraSans-Roman-30"/>
       <use x="159.033203125" xlink:href="#BitstreamVeraSans-Roman-25"/>
      </g>
     </g>
    </g>
    <g id="text_51">
     <!-- Welfare gains (high risk aversion) -->
     <defs>
      <path d="
M54.8906 33.0156
L54.8906 0
L45.9062 0
L45.9062 32.7188
Q45.9062 40.4844 42.875 44.3281
Q39.8438 48.1875 33.7969 48.1875
Q26.5156 48.1875 22.3125 43.5469
Q18.1094 38.9219 18.1094 30.9062
L18.1094 0
L9.07812 0
L9.07812 75.9844
L18.1094 75.9844
L18.1094 46.1875
Q21.3438 51.125 25.7031 53.5625
Q30.0781 56 35.7969 56
Q45.2188 56 50.0469 50.1719
Q54.8906 44.3438 54.8906 33.0156" id="BitstreamVeraSans-Roman-68"/>
     </defs>
     <g transform="translate(56.6359375 584.513068182)rotate(-90.0)scale(0.1 -0.1)">
      <use xlink:href="#BitstreamVeraSans-Roman-57"/>
      <use x="93.001953125" xlink:href="#BitstreamVeraSans-Roman-65"/>
      <use x="154.525390625" xlink:href="#BitstreamVeraSans-Roman-6c"/>
      <use x="182.30859375" xlink:href="#BitstreamVeraSans-Roman-66"/>
      <use x="217.513671875" xlink:href="#BitstreamVeraSans-Roman-61"/>
      <use x="278.79296875" xlink:href="#BitstreamVeraSans-Roman-72"/>
      <use x="317.65625" xlink:href="#BitstreamVeraSans-Roman-65"/>
      <use x="379.1796875" xlink:href="#BitstreamVeraSans-Roman-20"/>
      <use x="410.966796875" xlink:href="#BitstreamVeraSans-Roman-67"/>
      <use x="474.443359375" xlink:href="#BitstreamVeraSans-Roman-61"/>
      <use x="535.72265625" xlink:href="#BitstreamVeraSans-Roman-69"/>
      <use x="563.505859375" xlink:href="#BitstreamVeraSans-Roman-6e"/>
      <use x="626.884765625" xlink:href="#BitstreamVeraSans-Roman-73"/>
      <use x="678.984375" xlink:href="#BitstreamVeraSans-Roman-20"/>
      <use x="710.771484375" xlink:href="#BitstreamVeraSans-Roman-28"/>
      <use x="749.78515625" xlink:href="#BitstreamVeraSans-Roman-68"/>
      <use x="813.1640625" xlink:href="#BitstreamVeraSans-Roman-69"/>
      <use x="840.947265625" xlink:href="#BitstreamVeraSans-Roman-67"/>
      <use x="904.423828125" xlink:href="#BitstreamVeraSans-Roman-68"/>
      <use x="967.802734375" xlink:href="#BitstreamVeraSans-Roman-20"/>
      <use x="999.58984375" xlink:href="#BitstreamVeraSans-Roman-72"/>
      <use x="1040.703125" xlink:href="#BitstreamVeraSans-Roman-69"/>
      <use x="1068.48632812" xlink:href="#BitstreamVeraSans-Roman-73"/>
      <use x="1120.5859375" xlink:href="#BitstreamVeraSans-Roman-6b"/>
      <use x="1178.49609375" xlink:href="#BitstreamVeraSans-Roman-20"/>
      <use x="1210.28320312" xlink:href="#BitstreamVeraSans-Roman-61"/>
      <use x="1271.5625" xlink:href="#BitstreamVeraSans-Roman-76"/>
      <use x="1330.7421875" xlink:href="#BitstreamVeraSans-Roman-65"/>
      <use x="1392.265625" xlink:href="#BitstreamVeraSans-Roman-72"/>
      <use x="1433.37890625" xlink:href="#BitstreamVeraSans-Roman-73"/>
      <use x="1485.47851562" xlink:href="#BitstreamVeraSans-Roman-69"/>
      <use x="1513.26171875" xlink:href="#BitstreamVeraSans-Roman-6f"/>
      <use x="1574.44335938" xlink:href="#BitstreamVeraSans-Roman-6e"/>
      <use x="1637.82226562" xlink:href="#BitstreamVeraSans-Roman-29"/>
     </g>
    </g>
   </g>
   <g id="patch_14">
    <path d="
M90 376.364
L343.636 376.364" style="fill:none;stroke:#000000;"/>
   </g>
   <g id="patch_15">
    <path d="
M343.636 630
L343.636 376.364" style="fill:none;stroke:#000000;"/>
   </g>
   <g id="patch_16">
    <path d="
M90 630
L343.636 630" style="fill:none;stroke:#000000;"/>
   </g>
   <g id="patch_17">
    <path d="
M90 630
L90 376.364" style="fill:none;stroke:#000000;"/>
   </g>
  </g>
  <g id="axes_4">
   <g id="patch_18">
    <path d="
M394.364 630
L648 630
L648 376.364
L394.364 376.364
z
" style="fill:#ffffff;"/>
   </g>
   <g id="line2d_95">
    <path clip-path="url(#pf011238e0f)" d="
M432.409 573.366
L436.809 583.772
L441.209 592.133
L445.609 598.196
L450.008 603.113
L454.408 607.132
L458.808 610.266
L463.208 612.733
L467.608 614.665
L472.007 616.147
L476.407 617.297
L480.807 618.171
L485.207 618.776
L489.607 619.162
L494.006 619.372
L498.406 619.428
L502.806 619.353
L507.206 619.165
L511.606 618.88
L516.006 618.511
L520.405 618.069
L524.805 617.563
L529.205 617.003
L533.605 616.394
L538.005 615.744
L542.404 615.058
L546.804 614.34
L551.204 613.595
L555.604 612.826
L560.004 612.037
L564.404 611.231
L568.803 610.411
L573.203 609.577
L577.603 608.734
L582.003 607.882
L586.403 607.023
L590.802 606.158
L595.202 605.29
L599.602 604.418
L604.002 603.544
L608.402 602.669
L612.801 601.794
L617.201 600.919
L621.601 600.046
L626.001 599.174
L630.401 598.304
L634.801 597.436
L639.2 596.572
L643.6 595.711
L648 594.854" style="fill:none;stroke:#0000ff;stroke-dasharray:6.000000,6.000000;stroke-dashoffset:0.0;stroke-linecap:butt;"/>
   </g>
   <g id="line2d_96">
    <path clip-path="url(#pf011238e0f)" d="
M432.409 412.857
L436.809 425.547
L441.209 436.42
L445.609 444.231
L450.008 450.661
L454.408 456.038
L458.808 460.317
L463.208 463.773
L467.608 466.568
L472.007 468.799
L476.407 470.6
L480.807 472.04
L485.207 473.135
L489.607 473.946
L494.006 474.525
L498.406 474.899
L502.806 475.095
L507.206 475.139
L511.606 475.05
L516.006 474.843
L520.405 474.534
L524.805 474.134
L529.205 473.656
L533.605 473.107
L538.005 472.497
L542.404 471.833
L546.804 471.12
L551.204 470.365
L555.604 469.573
L560.004 468.748
L564.404 467.893
L568.803 467.014
L573.203 466.112
L577.603 465.191
L582.003 464.252
L586.403 463.299
L590.802 462.334
L595.202 461.358
L599.602 460.372
L604.002 459.38
L608.402 458.38
L612.801 457.376
L617.201 456.368
L621.601 455.357
L626.001 454.343
L630.401 453.329
L634.801 452.314
L639.2 451.298
L643.6 450.284
L648 449.271" style="fill:none;stroke:#ff0000;"/>
   </g>
   <g id="matplotlib.axis_7">
    <g id="xtick_16">
     <g id="line2d_97">
      <g>
       <use style="stroke:#000000;stroke-linecap:butt;stroke-width:0.5;" x="394.363636364" xlink:href="#mcb557df647" y="630.0"/>
      </g>
     </g>
     <g id="line2d_98">
      <g>
       <use style="stroke:#000000;stroke-linecap:butt;stroke-width:0.5;" x="394.363636364" xlink:href="#mdad270ee8e" y="376.363636364"/>
      </g>
     </g>
     <g id="text_52">
      <!-- 0.0% -->
      <g transform="translate(382.266761364 641.421875)scale(0.1 -0.1)">
       <use xlink:href="#BitstreamVeraSans-Roman-30"/>
       <use x="63.623046875" xlink:href="#BitstreamVeraSans-Roman-2e"/>
       <use x="95.41015625" xlink:href="#BitstreamVeraSans-Roman-30"/>
       <use x="159.033203125" xlink:href="#BitstreamVeraSans-Roman-25"/>
      </g>
     </g>
    </g>
    <g id="xtick_17">
     <g id="line2d_99">
      <g>
       <use style="stroke:#000000;stroke-linecap:butt;stroke-width:0.5;" x="457.772727273" xlink:href="#mcb557df647" y="630.0"/>
      </g>
     </g>
     <g id="line2d_100">
      <g>
       <use style="stroke:#000000;stroke-linecap:butt;stroke-width:0.5;" x="457.772727273" xlink:href="#mdad270ee8e" y="376.363636364"/>
      </g>
     </g>
     <g id="text_53">
      <!-- 50.0% -->
      <g transform="translate(442.550852273 641.421875)scale(0.1 -0.1)">
       <use xlink:href="#BitstreamVeraSans-Roman-35"/>
       <use x="63.623046875" xlink:href="#BitstreamVeraSans-Roman-30"/>
       <use x="127.24609375" xlink:href="#BitstreamVeraSans-Roman-2e"/>
       <use x="159.033203125" xlink:href="#BitstreamVeraSans-Roman-30"/>
       <use x="222.65625" xlink:href="#BitstreamVeraSans-Roman-25"/>
      </g>
     </g>
    </g>
    <g id="xtick_18">
     <g id="line2d_101">
      <g>
       <use style="stroke:#000000;stroke-linecap:butt;stroke-width:0.5;" x="521.181818182" xlink:href="#mcb557df647" y="630.0"/>
      </g>
     </g>
     <g id="line2d_102">
      <g>
       <use style="stroke:#000000;stroke-linecap:butt;stroke-width:0.5;" x="521.181818182" xlink:href="#mdad270ee8e" y="376.363636364"/>
      </g>
     </g>
     <g id="text_54">
      <!-- 100.0% -->
      <g transform="translate(502.941974432 641.421875)scale(0.1 -0.1)">
       <use xlink:href="#BitstreamVeraSans-Roman-31"/>
       <use x="63.623046875" xlink:href="#BitstreamVeraSans-Roman-30"/>
       <use x="127.24609375" xlink:href="#BitstreamVeraSans-Roman-30"/>
       <use x="190.869140625" xlink:href="#BitstreamVeraSans-Roman-2e"/>
       <use x="222.65625" xlink:href="#BitstreamVeraSans-Roman-30"/>
       <use x="286.279296875" xlink:href="#BitstreamVeraSans-Roman-25"/>
      </g>
     </g>
    </g>
    <g id="xtick_19">
     <g id="line2d_103">
      <g>
       <use style="stroke:#000000;stroke-linecap:butt;stroke-width:0.5;" x="584.590909091" xlink:href="#mcb557df647" y="630.0"/>
      </g>
     </g>
     <g id="line2d_104">
      <g>
       <use style="stroke:#000000;stroke-linecap:butt;stroke-width:0.5;" x="584.590909091" xlink:href="#mdad270ee8e" y="376.363636364"/>
      </g>
     </g>
     <g id="text_55">
      <!-- 150.0% -->
      <g transform="translate(566.351065341 641.421875)scale(0.1 -0.1)">
       <use xlink:href="#BitstreamVeraSans-Roman-31"/>
       <use x="63.623046875" xlink:href="#BitstreamVeraSans-Roman-35"/>
       <use x="127.24609375" xlink:href="#BitstreamVeraSans-Roman-30"/>
       <use x="190.869140625" xlink:href="#BitstreamVeraSans-Roman-2e"/>
       <use x="222.65625" xlink:href="#BitstreamVeraSans-Roman-30"/>
       <use x="286.279296875" xlink:href="#BitstreamVeraSans-Roman-25"/>
      </g>
     </g>
    </g>
    <g id="xtick_20">
     <g id="line2d_105">
      <g>
       <use style="stroke:#000000;stroke-linecap:butt;stroke-width:0.5;" x="648.0" xlink:href="#mcb557df647" y="630.0"/>
      </g>
     </g>
     <g id="line2d_106">
      <g>
       <use style="stroke:#000000;stroke-linecap:butt;stroke-width:0.5;" x="648.0" xlink:href="#mdad270ee8e" y="376.363636364"/>
      </g>
     </g>
     <g id="text_56">
      <!-- 200.0% -->
      <g transform="translate(629.57734375 641.421875)scale(0.1 -0.1)">
       <use xlink:href="#BitstreamVeraSans-Roman-32"/>
       <use x="63.623046875" xlink:href="#BitstreamVeraSans-Roman-30"/>
       <use x="127.24609375" xlink:href="#BitstreamVeraSans-Roman-30"/>
       <use x="190.869140625" xlink:href="#BitstreamVeraSans-Roman-2e"/>
       <use x="222.65625" xlink:href="#BitstreamVeraSans-Roman-30"/>
       <use x="286.279296875" xlink:href="#BitstreamVeraSans-Roman-25"/>
      </g>
     </g>
    </g>
    <g id="text_57">
     <!-- Capital scarcity in foreign country -->
     <g transform="translate(436.774005682 654.1625)scale(0.1 -0.1)">
      <use xlink:href="#BitstreamVeraSans-Roman-43"/>
      <use x="69.82421875" xlink:href="#BitstreamVeraSans-Roman-61"/>
      <use x="131.103515625" xlink:href="#BitstreamVeraSans-Roman-70"/>
      <use x="194.580078125" xlink:href="#BitstreamVeraSans-Roman-69"/>
      <use x="222.36328125" xlink:href="#BitstreamVeraSans-Roman-74"/>
      <use x="261.572265625" xlink:href="#BitstreamVeraSans-Roman-61"/>
      <use x="322.8515625" xlink:href="#BitstreamVeraSans-Roman-6c"/>
      <use x="350.634765625" xlink:href="#BitstreamVeraSans-Roman-20"/>
      <use x="382.421875" xlink:href="#BitstreamVeraSans-Roman-73"/>
      <use x="434.521484375" xlink:href="#BitstreamVeraSans-Roman-63"/>
      <use x="489.501953125" xlink:href="#BitstreamVeraSans-Roman-61"/>
      <use x="550.78125" xlink:href="#BitstreamVeraSans-Roman-72"/>
      <use x="589.64453125" xlink:href="#BitstreamVeraSans-Roman-63"/>
      <use x="644.625" xlink:href="#BitstreamVeraSans-Roman-69"/>
      <use x="672.408203125" xlink:href="#BitstreamVeraSans-Roman-74"/>
      <use x="711.6171875" xlink:href="#BitstreamVeraSans-Roman-79"/>
      <use x="770.796875" xlink:href="#BitstreamVeraSans-Roman-20"/>
      <use x="802.583984375" xlink:href="#BitstreamVeraSans-Roman-69"/>
      <use x="830.3671875" xlink:href="#BitstreamVeraSans-Roman-6e"/>
      <use x="893.74609375" xlink:href="#BitstreamVeraSans-Roman-20"/>
      <use x="925.533203125" xlink:href="#BitstreamVeraSans-Roman-66"/>
      <use x="960.73828125" xlink:href="#BitstreamVeraSans-Roman-6f"/>
      <use x="1021.91992188" xlink:href="#BitstreamVeraSans-Roman-72"/>
      <use x="1060.78320312" xlink:href="#BitstreamVeraSans-Roman-65"/>
      <use x="1122.30664062" xlink:href="#BitstreamVeraSans-Roman-69"/>
      <use x="1150.08984375" xlink:href="#BitstreamVeraSans-Roman-67"/>
      <use x="1213.56640625" xlink:href="#BitstreamVeraSans-Roman-6e"/>
      <use x="1276.9453125" xlink:href="#BitstreamVeraSans-Roman-20"/>
      <use x="1308.73242188" xlink:href="#BitstreamVeraSans-Roman-63"/>
      <use x="1363.71289062" xlink:href="#BitstreamVeraSans-Roman-6f"/>
      <use x="1424.89453125" xlink:href="#BitstreamVeraSans-Roman-75"/>
      <use x="1488.2734375" xlink:href="#BitstreamVeraSans-Roman-6e"/>
      <use x="1551.65234375" xlink:href="#BitstreamVeraSans-Roman-74"/>
      <use x="1590.86132812" xlink:href="#BitstreamVeraSans-Roman-72"/>
      <use x="1631.97460938" xlink:href="#BitstreamVeraSans-Roman-79"/>
     </g>
    </g>
   </g>
   <g id="matplotlib.axis_8">
    <g id="ytick_28">
     <g id="line2d_107">
      <g>
       <use style="stroke:#000000;stroke-linecap:butt;stroke-width:0.5;" x="394.363636364" xlink:href="#mc8fcea1516" y="630.0"/>
      </g>
     </g>
     <g id="line2d_108">
      <g>
       <use style="stroke:#000000;stroke-linecap:butt;stroke-width:0.5;" x="648.0" xlink:href="#m0d5b0a6425" y="630.0"/>
      </g>
     </g>
     <g id="text_58">
      <!-- 0.0% -->
      <g transform="translate(366.169886364 633.63984375)scale(0.1 -0.1)">
       <use xlink:href="#BitstreamVeraSans-Roman-30"/>
       <use x="63.623046875" xlink:href="#BitstreamVeraSans-Roman-2e"/>
       <use x="95.41015625" xlink:href="#BitstreamVeraSans-Roman-30"/>
       <use x="159.033203125" xlink:href="#BitstreamVeraSans-Roman-25"/>
      </g>
     </g>
    </g>
    <g id="ytick_29">
     <g id="line2d_109">
      <g>
       <use style="stroke:#000000;stroke-linecap:butt;stroke-width:0.5;" x="394.363636364" xlink:href="#mc8fcea1516" y="598.295454545"/>
      </g>
     </g>
     <g id="line2d_110">
      <g>
       <use style="stroke:#000000;stroke-linecap:butt;stroke-width:0.5;" x="648.0" xlink:href="#m0d5b0a6425" y="598.295454545"/>
      </g>
     </g>
     <g id="text_59">
      <!-- 0.5% -->
      <g transform="translate(366.169886364 601.935298295)scale(0.1 -0.1)">
       <use xlink:href="#BitstreamVeraSans-Roman-30"/>
       <use x="63.623046875" xlink:href="#BitstreamVeraSans-Roman-2e"/>
       <use x="95.41015625" xlink:href="#BitstreamVeraSans-Roman-35"/>
       <use x="159.033203125" xlink:href="#BitstreamVeraSans-Roman-25"/>
      </g>
     </g>
    </g>
    <g id="ytick_30">
     <g id="line2d_111">
      <g>
       <use style="stroke:#000000;stroke-linecap:butt;stroke-width:0.5;" x="394.363636364" xlink:href="#mc8fcea1516" y="566.590909091"/>
      </g>
     </g>
     <g id="line2d_112">
      <g>
       <use style="stroke:#000000;stroke-linecap:butt;stroke-width:0.5;" x="648.0" xlink:href="#m0d5b0a6425" y="566.590909091"/>
      </g>
     </g>
     <g id="text_60">
      <!-- 1.0% -->
      <g transform="translate(366.608948864 570.230752841)scale(0.1 -0.1)">
       <use xlink:href="#BitstreamVeraSans-Roman-31"/>
       <use x="63.623046875" xlink:href="#BitstreamVeraSans-Roman-2e"/>
       <use x="95.41015625" xlink:href="#BitstreamVeraSans-Roman-30"/>
       <use x="159.033203125" xlink:href="#BitstreamVeraSans-Roman-25"/>
      </g>
     </g>
    </g>
    <g id="ytick_31">
     <g id="line2d_113">
      <g>
       <use style="stroke:#000000;stroke-linecap:butt;stroke-width:0.5;" x="394.363636364" xlink:href="#mc8fcea1516" y="534.886363636"/>
      </g>
     </g>
     <g id="line2d_114">
      <g>
       <use style="stroke:#000000;stroke-linecap:butt;stroke-width:0.5;" x="648.0" xlink:href="#m0d5b0a6425" y="534.886363636"/>
      </g>
     </g>
     <g id="text_61">
      <!-- 1.5% -->
      <g transform="translate(366.608948864 538.526207386)scale(0.1 -0.1)">
       <use xlink:href="#BitstreamVeraSans-Roman-31"/>
       <use x="63.623046875" xlink:href="#BitstreamVeraSans-Roman-2e"/>
       <use x="95.41015625" xlink:href="#BitstreamVeraSans-Roman-35"/>
       <use x="159.033203125" xlink:href="#BitstreamVeraSans-Roman-25"/>
      </g>
     </g>
    </g>
    <g id="ytick_32">
     <g id="line2d_115">
      <g>
       <use style="stroke:#000000;stroke-linecap:butt;stroke-width:0.5;" x="394.363636364" xlink:href="#mc8fcea1516" y="503.181818182"/>
      </g>
     </g>
     <g id="line2d_116">
      <g>
       <use style="stroke:#000000;stroke-linecap:butt;stroke-width:0.5;" x="648.0" xlink:href="#m0d5b0a6425" y="503.181818182"/>
      </g>
     </g>
     <g id="text_62">
      <!-- 2.0% -->
      <g transform="translate(366.243323864 506.821661932)scale(0.1 -0.1)">
       <use xlink:href="#BitstreamVeraSans-Roman-32"/>
       <use x="63.623046875" xlink:href="#BitstreamVeraSans-Roman-2e"/>
       <use x="95.41015625" xlink:href="#BitstreamVeraSans-Roman-30"/>
       <use x="159.033203125" xlink:href="#BitstreamVeraSans-Roman-25"/>
      </g>
     </g>
    </g>
    <g id="ytick_33">
     <g id="line2d_117">
      <g>
       <use style="stroke:#000000;stroke-linecap:butt;stroke-width:0.5;" x="394.363636364" xlink:href="#mc8fcea1516" y="471.477272727"/>
      </g>
     </g>
     <g id="line2d_118">
      <g>
       <use style="stroke:#000000;stroke-linecap:butt;stroke-width:0.5;" x="648.0" xlink:href="#m0d5b0a6425" y="471.477272727"/>
      </g>
     </g>
     <g id="text_63">
      <!-- 2.5% -->
      <g transform="translate(366.243323864 475.117116477)scale(0.1 -0.1)">
       <use xlink:href="#BitstreamVeraSans-Roman-32"/>
       <use x="63.623046875" xlink:href="#BitstreamVeraSans-Roman-2e"/>
       <use x="95.41015625" xlink:href="#BitstreamVeraSans-Roman-35"/>
       <use x="159.033203125" xlink:href="#BitstreamVeraSans-Roman-25"/>
      </g>
     </g>
    </g>
    <g id="ytick_34">
     <g id="line2d_119">
      <g>
       <use style="stroke:#000000;stroke-linecap:butt;stroke-width:0.5;" x="394.363636364" xlink:href="#mc8fcea1516" y="439.772727273"/>
      </g>
     </g>
     <g id="line2d_120">
      <g>
       <use style="stroke:#000000;stroke-linecap:butt;stroke-width:0.5;" x="648.0" xlink:href="#m0d5b0a6425" y="439.772727273"/>
      </g>
     </g>
     <g id="text_64">
      <!-- 3.0% -->
      <g transform="translate(366.273011364 443.412571023)scale(0.1 -0.1)">
       <use xlink:href="#BitstreamVeraSans-Roman-33"/>
       <use x="63.623046875" xlink:href="#BitstreamVeraSans-Roman-2e"/>
       <use x="95.41015625" xlink:href="#BitstreamVeraSans-Roman-30"/>
       <use x="159.033203125" xlink:href="#BitstreamVeraSans-Roman-25"/>
      </g>
     </g>
    </g>
    <g id="ytick_35">
     <g id="line2d_121">
      <g>
       <use style="stroke:#000000;stroke-linecap:butt;stroke-width:0.5;" x="394.363636364" xlink:href="#mc8fcea1516" y="408.068181818"/>
      </g>
     </g>
     <g id="line2d_122">
      <g>
       <use style="stroke:#000000;stroke-linecap:butt;stroke-width:0.5;" x="648.0" xlink:href="#m0d5b0a6425" y="408.068181818"/>
      </g>
     </g>
     <g id="text_65">
      <!-- 3.5% -->
      <g transform="translate(366.273011364 411.708025568)scale(0.1 -0.1)">
       <use xlink:href="#BitstreamVeraSans-Roman-33"/>
       <use x="63.623046875" xlink:href="#BitstreamVeraSans-Roman-2e"/>
       <use x="95.41015625" xlink:href="#BitstreamVeraSans-Roman-35"/>
       <use x="159.033203125" xlink:href="#BitstreamVeraSans-Roman-25"/>
      </g>
     </g>
    </g>
    <g id="ytick_36">
     <g id="line2d_123">
      <g>
       <use style="stroke:#000000;stroke-linecap:butt;stroke-width:0.5;" x="394.363636364" xlink:href="#mc8fcea1516" y="376.363636364"/>
      </g>
     </g>
     <g id="line2d_124">
      <g>
       <use style="stroke:#000000;stroke-linecap:butt;stroke-width:0.5;" x="648.0" xlink:href="#m0d5b0a6425" y="376.363636364"/>
      </g>
     </g>
     <g id="text_66">
      <!-- 4.0% -->
      <g transform="translate(365.999573864 380.003480114)scale(0.1 -0.1)">
       <use xlink:href="#BitstreamVeraSans-Roman-34"/>
       <use x="63.623046875" xlink:href="#BitstreamVeraSans-Roman-2e"/>
       <use x="95.41015625" xlink:href="#BitstreamVeraSans-Roman-30"/>
       <use x="159.033203125" xlink:href="#BitstreamVeraSans-Roman-25"/>
      </g>
     </g>
    </g>
   </g>
   <g id="patch_19">
    <path d="
M394.364 376.364
L648 376.364" style="fill:none;stroke:#000000;"/>
   </g>
   <g id="patch_20">
    <path d="
M648 630
L648 376.364" style="fill:none;stroke:#000000;"/>
   </g>
   <g id="patch_21">
    <path d="
M394.364 630
L648 630" style="fill:none;stroke:#000000;"/>
   </g>
   <g id="patch_22">
    <path d="
M394.364 630
L394.364 376.364" style="fill:none;stroke:#000000;"/>
   </g>
  </g>
 </g>
 <defs>
  <clipPath id="p872184949c">
   <rect height="253.636363636" width="253.636363636" x="394.363636364" y="72.0"/>
  </clipPath>
  <clipPath id="peca1e0c77b">
   <rect height="253.636363636" width="253.636363636" x="90.0" y="72.0"/>
  </clipPath>
  <clipPath id="p62fb68c778">
   <rect height="253.636363636" width="253.636363636" x="90.0" y="376.363636364"/>
  </clipPath>
  <clipPath id="pf011238e0f">
   <rect height="253.636363636" width="253.636363636" x="394.363636364" y="376.363636364"/>
  </clipPath>
 </defs>
</svg>
