<?xml version="1.0" encoding="UTF-8" standalone="no"?>
<!DOCTYPE svg PUBLIC "-//W3C//DTD SVG 1.1//EN"
 "http://www.w3.org/Graphics/SVG/1.1/DTD/svg11.dtd">
<!-- Generated by graphviz version 2.38.0 (20140413.2041)
 -->
<!-- Title: %3 Pages: 1 -->
<svg width="608pt" height="582pt"
 viewBox="0.00 0.00 607.50 582.00" xmlns="http://www.w3.org/2000/svg" xmlns:xlink="http://www.w3.org/1999/xlink">
<g id="graph0" class="graph" transform="scale(1 1) rotate(0) translate(4 578)">
<title>%3</title>
<polygon fill="white" stroke="none" points="-4,4 -4,-578 603.5,-578 603.5,4 -4,4"/>
<!-- long_run_95_002 -->
<g id="node1" class="node"><title>long_run_95_002</title>
<polygon fill="none" stroke="black" points="126.5,-178 10.5,-178 10.5,-100 126.5,-100 126.5,-178"/>
<text text-anchor="start" x="18.5" y="-163.8" font-family="Times,serif" font-weight="bold" text-decoration="underline" font-size="14.00">long_run_95_002</text>
<text text-anchor="start" x="41.5" y="-135.8" font-family="Times,serif" font-size="14.00">kmin: 2.0</text>
<text text-anchor="start" x="29" y="-121.8" font-family="Times,serif" font-size="14.00">rho_E: 0.9995</text>
<text text-anchor="start" x="25" y="-107.8" font-family="Times,serif" font-size="14.00">sigma_E: 0.002</text>
</g>
<!-- long_run_95_002_30 -->
<g id="node2" class="node"><title>long_run_95_002_30</title>
<polygon fill="none" stroke="black" points="137,-64 0,-64 0,-0 137,-0 137,-64"/>
<text text-anchor="start" x="8" y="-49.8" font-family="Times,serif" font-weight="bold" text-decoration="underline" font-size="14.00">long_run_95_002_30</text>
<text text-anchor="start" x="46" y="-21.8" font-family="Times,serif" font-size="14.00">N_b: 30</text>
<text text-anchor="start" x="46" y="-7.8" font-family="Times,serif" font-size="14.00">N_k: 30</text>
</g>
<!-- long_run_95_002&#45;&gt;long_run_95_002_30 -->
<g id="edge1" class="edge"><title>long_run_95_002&#45;&gt;long_run_95_002_30</title>
<path fill="none" stroke="black" d="M68.5,-99.7956C68.5,-91.4581 68.5,-82.6 68.5,-74.1534"/>
<polygon fill="black" stroke="black" points="72.0001,-74.1171 68.5,-64.1172 65.0001,-74.1172 72.0001,-74.1171"/>
</g>
<!-- long_run_95_001 -->
<g id="node3" class="node"><title>long_run_95_001</title>
<polygon fill="none" stroke="black" points="240.5,-292 124.5,-292 124.5,-214 240.5,-214 240.5,-292"/>
<text text-anchor="start" x="132.5" y="-277.8" font-family="Times,serif" font-weight="bold" text-decoration="underline" font-size="14.00">long_run_95_001</text>
<text text-anchor="start" x="155.5" y="-249.8" font-family="Times,serif" font-size="14.00">kmin: 2.0</text>
<text text-anchor="start" x="143" y="-235.8" font-family="Times,serif" font-size="14.00">rho_E: 0.9995</text>
<text text-anchor="start" x="139" y="-221.8" font-family="Times,serif" font-size="14.00">sigma_E: 0.001</text>
</g>
<!-- long_run_95_001&#45;&gt;long_run_95_002 -->
<g id="edge2" class="edge"><title>long_run_95_001&#45;&gt;long_run_95_002</title>
<path fill="none" stroke="black" d="M143.587,-213.769C134.232,-204.579 124.152,-194.676 114.508,-185.201"/>
<polygon fill="black" stroke="black" points="116.824,-182.57 107.238,-178.058 111.919,-187.563 116.824,-182.57"/>
</g>
<!-- long_run_95_001_30 -->
<g id="node4" class="node"><title>long_run_95_001_30</title>
<polygon fill="none" stroke="black" points="282,-171 145,-171 145,-107 282,-107 282,-171"/>
<text text-anchor="start" x="153" y="-156.8" font-family="Times,serif" font-weight="bold" text-decoration="underline" font-size="14.00">long_run_95_001_30</text>
<text text-anchor="start" x="191" y="-128.8" font-family="Times,serif" font-size="14.00">N_b: 30</text>
<text text-anchor="start" x="191" y="-114.8" font-family="Times,serif" font-size="14.00">N_k: 30</text>
</g>
<!-- long_run_95_001&#45;&gt;long_run_95_001_30 -->
<g id="edge3" class="edge"><title>long_run_95_001&#45;&gt;long_run_95_001_30</title>
<path fill="none" stroke="black" d="M193.082,-213.769C196.036,-203.095 199.256,-191.461 202.248,-180.652"/>
<polygon fill="black" stroke="black" points="205.622,-181.581 204.917,-171.01 198.876,-179.714 205.622,-181.581"/>
</g>
<!-- long_run_000_30 -->
<g id="node5" class="node"><title>long_run_000_30</title>
<polygon fill="none" stroke="black" points="374.5,-285 258.5,-285 258.5,-221 374.5,-221 374.5,-285"/>
<text text-anchor="start" x="266.5" y="-270.8" font-family="Times,serif" font-weight="bold" text-decoration="underline" font-size="14.00">long_run_000_30</text>
<text text-anchor="start" x="294" y="-242.8" font-family="Times,serif" font-size="14.00">N_b: 30</text>
<text text-anchor="start" x="294" y="-228.8" font-family="Times,serif" font-size="14.00">N_k: 30</text>
</g>
<!-- long_run_001 -->
<g id="node6" class="node"><title>long_run_001</title>
<polygon fill="none" stroke="black" points="496,-292 393,-292 393,-214 496,-214 496,-292"/>
<text text-anchor="start" x="404.5" y="-277.8" font-family="Times,serif" font-weight="bold" text-decoration="underline" font-size="14.00">long_run_001</text>
<text text-anchor="start" x="417.5" y="-249.8" font-family="Times,serif" font-size="14.00">kmin: 2.0</text>
<text text-anchor="start" x="408.5" y="-235.8" font-family="Times,serif" font-size="14.00">rho_E: 0.999</text>
<text text-anchor="start" x="401" y="-221.8" font-family="Times,serif" font-size="14.00">sigma_E: 0.001</text>
</g>
<!-- long_run_002 -->
<g id="node7" class="node"><title>long_run_002</title>
<polygon fill="none" stroke="black" points="465,-178 362,-178 362,-100 465,-100 465,-178"/>
<text text-anchor="start" x="373.5" y="-163.8" font-family="Times,serif" font-weight="bold" text-decoration="underline" font-size="14.00">long_run_002</text>
<text text-anchor="start" x="386.5" y="-135.8" font-family="Times,serif" font-size="14.00">kmin: 2.0</text>
<text text-anchor="start" x="377.5" y="-121.8" font-family="Times,serif" font-size="14.00">rho_E: 0.999</text>
<text text-anchor="start" x="370" y="-107.8" font-family="Times,serif" font-size="14.00">sigma_E: 0.002</text>
</g>
<!-- long_run_001&#45;&gt;long_run_002 -->
<g id="edge4" class="edge"><title>long_run_001&#45;&gt;long_run_002</title>
<path fill="none" stroke="black" d="M433.918,-213.769C431.599,-205.389 429.116,-196.418 426.708,-187.718"/>
<polygon fill="black" stroke="black" points="430.075,-186.762 424.034,-178.058 423.329,-188.63 430.075,-186.762"/>
</g>
<!-- long_run_001_30 -->
<g id="node8" class="node"><title>long_run_001_30</title>
<polygon fill="none" stroke="black" points="599.5,-171 483.5,-171 483.5,-107 599.5,-107 599.5,-171"/>
<text text-anchor="start" x="491.5" y="-156.8" font-family="Times,serif" font-weight="bold" text-decoration="underline" font-size="14.00">long_run_001_30</text>
<text text-anchor="start" x="519" y="-128.8" font-family="Times,serif" font-size="14.00">N_b: 30</text>
<text text-anchor="start" x="519" y="-114.8" font-family="Times,serif" font-size="14.00">N_k: 30</text>
</g>
<!-- long_run_001&#45;&gt;long_run_001_30 -->
<g id="edge5" class="edge"><title>long_run_001&#45;&gt;long_run_001_30</title>
<path fill="none" stroke="black" d="M477.611,-213.769C487.421,-202.442 498.168,-190.032 508.003,-178.677"/>
<polygon fill="black" stroke="black" points="510.742,-180.861 514.643,-171.01 505.451,-176.278 510.742,-180.861"/>
</g>
<!-- long_run_002_30 -->
<g id="node10" class="node"><title>long_run_002_30</title>
<polygon fill="none" stroke="black" points="471.5,-64 355.5,-64 355.5,-0 471.5,-0 471.5,-64"/>
<text text-anchor="start" x="363.5" y="-49.8" font-family="Times,serif" font-weight="bold" text-decoration="underline" font-size="14.00">long_run_002_30</text>
<text text-anchor="start" x="391" y="-21.8" font-family="Times,serif" font-size="14.00">N_b: 30</text>
<text text-anchor="start" x="391" y="-7.8" font-family="Times,serif" font-size="14.00">N_k: 30</text>
</g>
<!-- long_run_002&#45;&gt;long_run_002_30 -->
<g id="edge9" class="edge"><title>long_run_002&#45;&gt;long_run_002_30</title>
<path fill="none" stroke="black" d="M413.5,-99.7956C413.5,-91.4581 413.5,-82.6 413.5,-74.1534"/>
<polygon fill="black" stroke="black" points="417,-74.1171 413.5,-64.1172 410,-74.1172 417,-74.1171"/>
</g>
<!-- long_run_000 -->
<g id="node9" class="node"><title>long_run_000</title>
<polygon fill="none" stroke="black" points="364.5,-574 268.5,-574 268.5,-328 364.5,-328 364.5,-574"/>
<text text-anchor="start" x="276.5" y="-559.8" font-family="Times,serif" font-weight="bold" text-decoration="underline" font-size="14.00">long_run_000</text>
<text text-anchor="start" x="294" y="-531.8" font-family="Times,serif" font-size="14.00">N_b: 10</text>
<text text-anchor="start" x="294" y="-517.8" font-family="Times,serif" font-size="14.00">N_k: 10</text>
<text text-anchor="start" x="295" y="-503.8" font-family="Times,serif" font-size="14.00">N_s: 10</text>
<text text-anchor="start" x="287.5" y="-489.8" font-family="Times,serif" font-size="14.00">delta: 0.08</text>
<text text-anchor="start" x="285" y="-475.8" font-family="Times,serif" font-size="14.00">gamma: 10</text>
<text text-anchor="start" x="290.5" y="-461.8" font-family="Times,serif" font-size="14.00">kmax: 10</text>
<text text-anchor="start" x="289.5" y="-447.8" font-family="Times,serif" font-size="14.00">kmin: 1.5</text>
<text text-anchor="start" x="281.5" y="-433.8" font-family="Times,serif" font-size="14.00">max_b: 10.0</text>
<text text-anchor="start" x="280.5" y="-419.8" font-family="Times,serif" font-size="14.00">min_b: &#45;10.0</text>
<text text-anchor="start" x="299.5" y="-405.8" font-family="Times,serif" font-size="14.00">n_a: 3</text>
<text text-anchor="start" x="299.5" y="-391.8" font-family="Times,serif" font-size="14.00">n_e: 3</text>
<text text-anchor="start" x="299" y="-377.8" font-family="Times,serif" font-size="14.00">n_u: 1</text>
<text text-anchor="start" x="296" y="-363.8" font-family="Times,serif" font-size="14.00">psi: 0.5</text>
<text text-anchor="start" x="280" y="-349.8" font-family="Times,serif" font-size="14.00">sigma_E: 0.0</text>
<text text-anchor="start" x="298.5" y="-335.8" font-family="Times,serif" font-size="14.00">xi: 0.2</text>
</g>
<!-- long_run_000&#45;&gt;long_run_95_001 -->
<g id="edge6" class="edge"><title>long_run_000&#45;&gt;long_run_95_001</title>
<path fill="none" stroke="black" d="M268.312,-379.516C250.336,-353.223 230.394,-324.054 214.262,-300.457"/>
<polygon fill="black" stroke="black" points="217.035,-298.312 208.501,-292.032 211.256,-302.262 217.035,-298.312"/>
</g>
<!-- long_run_000&#45;&gt;long_run_000_30 -->
<g id="edge7" class="edge"><title>long_run_000&#45;&gt;long_run_000_30</title>
<path fill="none" stroke="black" d="M316.5,-327.82C316.5,-316.306 316.5,-305.267 316.5,-295.395"/>
<polygon fill="black" stroke="black" points="320,-295.173 316.5,-285.173 313,-295.173 320,-295.173"/>
</g>
<!-- long_run_000&#45;&gt;long_run_001 -->
<g id="edge8" class="edge"><title>long_run_000&#45;&gt;long_run_001</title>
<path fill="none" stroke="black" d="M364.527,-376.459C381.133,-351.031 399.272,-323.255 414.071,-300.595"/>
<polygon fill="black" stroke="black" points="417.031,-302.462 419.569,-292.176 411.17,-298.635 417.031,-302.462"/>
</g>
</g>
</svg>
